%!PS-Adobe-2.0 EPSF-2.0
%%Title: plot_sigmay.eps
%%Creator: gnuplot 5.0 patchlevel 0
%%CreationDate: Wed Feb  3 14:21:17 2016
%%DocumentFonts: (atend)
%%BoundingBox: 50 50 410 302
%%EndComments
%%BeginProlog
/gnudict 256 dict def
gnudict begin
%
% The following true/false flags may be edited by hand if desired.
% The unit line width and grayscale image gamma correction may also be changed.
%
/Color true def
/Blacktext false def
/Solid false def
/Dashlength 1 def
/Landscape false def
/Level1 false def
/Level3 false def
/Rounded false def
/ClipToBoundingBox false def
/SuppressPDFMark false def
/TransparentPatterns false def
/gnulinewidth 5.000 def
/userlinewidth gnulinewidth def
/Gamma 1.0 def
/BackgroundColor {-1.000 -1.000 -1.000} def
%
/vshift -73 def
/dl1 {
  10.0 Dashlength userlinewidth gnulinewidth div mul mul mul
  Rounded { currentlinewidth 0.75 mul sub dup 0 le { pop 0.01 } if } if
} def
/dl2 {
  10.0 Dashlength userlinewidth gnulinewidth div mul mul mul
  Rounded { currentlinewidth 0.75 mul add } if
} def
/hpt_ 31.5 def
/vpt_ 31.5 def
/hpt hpt_ def
/vpt vpt_ def
/doclip {
  ClipToBoundingBox {
    newpath 50 50 moveto 410 50 lineto 410 302 lineto 50 302 lineto closepath
    clip
  } if
} def
%
% Gnuplot Prolog Version 5.0 (Dec 2014)
%
%/SuppressPDFMark true def
%
/M {moveto} bind def
/L {lineto} bind def
/R {rmoveto} bind def
/V {rlineto} bind def
/N {newpath moveto} bind def
/Z {closepath} bind def
/C {setrgbcolor} bind def
/f {rlineto fill} bind def
/g {setgray} bind def
/Gshow {show} def   % May be redefined later in the file to support UTF-8
/vpt2 vpt 2 mul def
/hpt2 hpt 2 mul def
/Lshow {currentpoint stroke M 0 vshift R 
	Blacktext {gsave 0 setgray textshow grestore} {textshow} ifelse} def
/Rshow {currentpoint stroke M dup stringwidth pop neg vshift R
	Blacktext {gsave 0 setgray textshow grestore} {textshow} ifelse} def
/Cshow {currentpoint stroke M dup stringwidth pop -2 div vshift R 
	Blacktext {gsave 0 setgray textshow grestore} {textshow} ifelse} def
/UP {dup vpt_ mul /vpt exch def hpt_ mul /hpt exch def
  /hpt2 hpt 2 mul def /vpt2 vpt 2 mul def} def
/DL {Color {setrgbcolor Solid {pop []} if 0 setdash}
 {pop pop pop 0 setgray Solid {pop []} if 0 setdash} ifelse} def
/BL {stroke userlinewidth 2 mul setlinewidth
	Rounded {1 setlinejoin 1 setlinecap} if} def
/AL {stroke userlinewidth 2 div setlinewidth
	Rounded {1 setlinejoin 1 setlinecap} if} def
/UL {dup gnulinewidth mul /userlinewidth exch def
	dup 1 lt {pop 1} if 10 mul /udl exch def} def
/PL {stroke userlinewidth setlinewidth
	Rounded {1 setlinejoin 1 setlinecap} if} def
3.8 setmiterlimit
% Classic Line colors (version 5.0)
/LCw {1 1 1} def
/LCb {0 0 0} def
/LCa {0 0 0} def
/LC0 {1 0 0} def
/LC1 {0 1 0} def
/LC2 {0 0 1} def
/LC3 {1 0 1} def
/LC4 {0 1 1} def
/LC5 {1 1 0} def
/LC6 {0 0 0} def
/LC7 {1 0.3 0} def
/LC8 {0.5 0.5 0.5} def
% Default dash patterns (version 5.0)
/LTw {PL [] 1 setgray} def
/LTb {BL [] LCb DL} def
/LTa {AL [1 udl mul 2 udl mul] 0 setdash LCa setrgbcolor} def
/LT0 {PL [] LC0 DL} def
/LT1 {PL [2 dl1 3 dl2] LC1 DL} def
/LT2 {PL [1 dl1 1.5 dl2] LC2 DL} def
/LT3 {PL [6 dl1 2 dl2 1 dl1 2 dl2] LC3 DL} def
/LT4 {PL [1 dl1 2 dl2 6 dl1 2 dl2 1 dl1 2 dl2] LC4 DL} def
/LT5 {PL [4 dl1 2 dl2] LC5 DL} def
/LT6 {PL [1.5 dl1 1.5 dl2 1.5 dl1 1.5 dl2 1.5 dl1 6 dl2] LC6 DL} def
/LT7 {PL [3 dl1 3 dl2 1 dl1 3 dl2] LC7 DL} def
/LT8 {PL [2 dl1 2 dl2 2 dl1 6 dl2] LC8 DL} def
/SL {[] 0 setdash} def
/Pnt {stroke [] 0 setdash gsave 1 setlinecap M 0 0 V stroke grestore} def
/Dia {stroke [] 0 setdash 2 copy vpt add M
  hpt neg vpt neg V hpt vpt neg V
  hpt vpt V hpt neg vpt V closepath stroke
  Pnt} def
/Pls {stroke [] 0 setdash vpt sub M 0 vpt2 V
  currentpoint stroke M
  hpt neg vpt neg R hpt2 0 V stroke
 } def
/Box {stroke [] 0 setdash 2 copy exch hpt sub exch vpt add M
  0 vpt2 neg V hpt2 0 V 0 vpt2 V
  hpt2 neg 0 V closepath stroke
  Pnt} def
/Crs {stroke [] 0 setdash exch hpt sub exch vpt add M
  hpt2 vpt2 neg V currentpoint stroke M
  hpt2 neg 0 R hpt2 vpt2 V stroke} def
/TriU {stroke [] 0 setdash 2 copy vpt 1.12 mul add M
  hpt neg vpt -1.62 mul V
  hpt 2 mul 0 V
  hpt neg vpt 1.62 mul V closepath stroke
  Pnt} def
/Star {2 copy Pls Crs} def
/BoxF {stroke [] 0 setdash exch hpt sub exch vpt add M
  0 vpt2 neg V hpt2 0 V 0 vpt2 V
  hpt2 neg 0 V closepath fill} def
/TriUF {stroke [] 0 setdash vpt 1.12 mul add M
  hpt neg vpt -1.62 mul V
  hpt 2 mul 0 V
  hpt neg vpt 1.62 mul V closepath fill} def
/TriD {stroke [] 0 setdash 2 copy vpt 1.12 mul sub M
  hpt neg vpt 1.62 mul V
  hpt 2 mul 0 V
  hpt neg vpt -1.62 mul V closepath stroke
  Pnt} def
/TriDF {stroke [] 0 setdash vpt 1.12 mul sub M
  hpt neg vpt 1.62 mul V
  hpt 2 mul 0 V
  hpt neg vpt -1.62 mul V closepath fill} def
/DiaF {stroke [] 0 setdash vpt add M
  hpt neg vpt neg V hpt vpt neg V
  hpt vpt V hpt neg vpt V closepath fill} def
/Pent {stroke [] 0 setdash 2 copy gsave
  translate 0 hpt M 4 {72 rotate 0 hpt L} repeat
  closepath stroke grestore Pnt} def
/PentF {stroke [] 0 setdash gsave
  translate 0 hpt M 4 {72 rotate 0 hpt L} repeat
  closepath fill grestore} def
/Circle {stroke [] 0 setdash 2 copy
  hpt 0 360 arc stroke Pnt} def
/CircleF {stroke [] 0 setdash hpt 0 360 arc fill} def
/C0 {BL [] 0 setdash 2 copy moveto vpt 90 450 arc} bind def
/C1 {BL [] 0 setdash 2 copy moveto
	2 copy vpt 0 90 arc closepath fill
	vpt 0 360 arc closepath} bind def
/C2 {BL [] 0 setdash 2 copy moveto
	2 copy vpt 90 180 arc closepath fill
	vpt 0 360 arc closepath} bind def
/C3 {BL [] 0 setdash 2 copy moveto
	2 copy vpt 0 180 arc closepath fill
	vpt 0 360 arc closepath} bind def
/C4 {BL [] 0 setdash 2 copy moveto
	2 copy vpt 180 270 arc closepath fill
	vpt 0 360 arc closepath} bind def
/C5 {BL [] 0 setdash 2 copy moveto
	2 copy vpt 0 90 arc
	2 copy moveto
	2 copy vpt 180 270 arc closepath fill
	vpt 0 360 arc} bind def
/C6 {BL [] 0 setdash 2 copy moveto
	2 copy vpt 90 270 arc closepath fill
	vpt 0 360 arc closepath} bind def
/C7 {BL [] 0 setdash 2 copy moveto
	2 copy vpt 0 270 arc closepath fill
	vpt 0 360 arc closepath} bind def
/C8 {BL [] 0 setdash 2 copy moveto
	2 copy vpt 270 360 arc closepath fill
	vpt 0 360 arc closepath} bind def
/C9 {BL [] 0 setdash 2 copy moveto
	2 copy vpt 270 450 arc closepath fill
	vpt 0 360 arc closepath} bind def
/C10 {BL [] 0 setdash 2 copy 2 copy moveto vpt 270 360 arc closepath fill
	2 copy moveto
	2 copy vpt 90 180 arc closepath fill
	vpt 0 360 arc closepath} bind def
/C11 {BL [] 0 setdash 2 copy moveto
	2 copy vpt 0 180 arc closepath fill
	2 copy moveto
	2 copy vpt 270 360 arc closepath fill
	vpt 0 360 arc closepath} bind def
/C12 {BL [] 0 setdash 2 copy moveto
	2 copy vpt 180 360 arc closepath fill
	vpt 0 360 arc closepath} bind def
/C13 {BL [] 0 setdash 2 copy moveto
	2 copy vpt 0 90 arc closepath fill
	2 copy moveto
	2 copy vpt 180 360 arc closepath fill
	vpt 0 360 arc closepath} bind def
/C14 {BL [] 0 setdash 2 copy moveto
	2 copy vpt 90 360 arc closepath fill
	vpt 0 360 arc} bind def
/C15 {BL [] 0 setdash 2 copy vpt 0 360 arc closepath fill
	vpt 0 360 arc closepath} bind def
/Rec {newpath 4 2 roll moveto 1 index 0 rlineto 0 exch rlineto
	neg 0 rlineto closepath} bind def
/Square {dup Rec} bind def
/Bsquare {vpt sub exch vpt sub exch vpt2 Square} bind def
/S0 {BL [] 0 setdash 2 copy moveto 0 vpt rlineto BL Bsquare} bind def
/S1 {BL [] 0 setdash 2 copy vpt Square fill Bsquare} bind def
/S2 {BL [] 0 setdash 2 copy exch vpt sub exch vpt Square fill Bsquare} bind def
/S3 {BL [] 0 setdash 2 copy exch vpt sub exch vpt2 vpt Rec fill Bsquare} bind def
/S4 {BL [] 0 setdash 2 copy exch vpt sub exch vpt sub vpt Square fill Bsquare} bind def
/S5 {BL [] 0 setdash 2 copy 2 copy vpt Square fill
	exch vpt sub exch vpt sub vpt Square fill Bsquare} bind def
/S6 {BL [] 0 setdash 2 copy exch vpt sub exch vpt sub vpt vpt2 Rec fill Bsquare} bind def
/S7 {BL [] 0 setdash 2 copy exch vpt sub exch vpt sub vpt vpt2 Rec fill
	2 copy vpt Square fill Bsquare} bind def
/S8 {BL [] 0 setdash 2 copy vpt sub vpt Square fill Bsquare} bind def
/S9 {BL [] 0 setdash 2 copy vpt sub vpt vpt2 Rec fill Bsquare} bind def
/S10 {BL [] 0 setdash 2 copy vpt sub vpt Square fill 2 copy exch vpt sub exch vpt Square fill
	Bsquare} bind def
/S11 {BL [] 0 setdash 2 copy vpt sub vpt Square fill 2 copy exch vpt sub exch vpt2 vpt Rec fill
	Bsquare} bind def
/S12 {BL [] 0 setdash 2 copy exch vpt sub exch vpt sub vpt2 vpt Rec fill Bsquare} bind def
/S13 {BL [] 0 setdash 2 copy exch vpt sub exch vpt sub vpt2 vpt Rec fill
	2 copy vpt Square fill Bsquare} bind def
/S14 {BL [] 0 setdash 2 copy exch vpt sub exch vpt sub vpt2 vpt Rec fill
	2 copy exch vpt sub exch vpt Square fill Bsquare} bind def
/S15 {BL [] 0 setdash 2 copy Bsquare fill Bsquare} bind def
/D0 {gsave translate 45 rotate 0 0 S0 stroke grestore} bind def
/D1 {gsave translate 45 rotate 0 0 S1 stroke grestore} bind def
/D2 {gsave translate 45 rotate 0 0 S2 stroke grestore} bind def
/D3 {gsave translate 45 rotate 0 0 S3 stroke grestore} bind def
/D4 {gsave translate 45 rotate 0 0 S4 stroke grestore} bind def
/D5 {gsave translate 45 rotate 0 0 S5 stroke grestore} bind def
/D6 {gsave translate 45 rotate 0 0 S6 stroke grestore} bind def
/D7 {gsave translate 45 rotate 0 0 S7 stroke grestore} bind def
/D8 {gsave translate 45 rotate 0 0 S8 stroke grestore} bind def
/D9 {gsave translate 45 rotate 0 0 S9 stroke grestore} bind def
/D10 {gsave translate 45 rotate 0 0 S10 stroke grestore} bind def
/D11 {gsave translate 45 rotate 0 0 S11 stroke grestore} bind def
/D12 {gsave translate 45 rotate 0 0 S12 stroke grestore} bind def
/D13 {gsave translate 45 rotate 0 0 S13 stroke grestore} bind def
/D14 {gsave translate 45 rotate 0 0 S14 stroke grestore} bind def
/D15 {gsave translate 45 rotate 0 0 S15 stroke grestore} bind def
/DiaE {stroke [] 0 setdash vpt add M
  hpt neg vpt neg V hpt vpt neg V
  hpt vpt V hpt neg vpt V closepath stroke} def
/BoxE {stroke [] 0 setdash exch hpt sub exch vpt add M
  0 vpt2 neg V hpt2 0 V 0 vpt2 V
  hpt2 neg 0 V closepath stroke} def
/TriUE {stroke [] 0 setdash vpt 1.12 mul add M
  hpt neg vpt -1.62 mul V
  hpt 2 mul 0 V
  hpt neg vpt 1.62 mul V closepath stroke} def
/TriDE {stroke [] 0 setdash vpt 1.12 mul sub M
  hpt neg vpt 1.62 mul V
  hpt 2 mul 0 V
  hpt neg vpt -1.62 mul V closepath stroke} def
/PentE {stroke [] 0 setdash gsave
  translate 0 hpt M 4 {72 rotate 0 hpt L} repeat
  closepath stroke grestore} def
/CircE {stroke [] 0 setdash 
  hpt 0 360 arc stroke} def
/Opaque {gsave closepath 1 setgray fill grestore 0 setgray closepath} def
/DiaW {stroke [] 0 setdash vpt add M
  hpt neg vpt neg V hpt vpt neg V
  hpt vpt V hpt neg vpt V Opaque stroke} def
/BoxW {stroke [] 0 setdash exch hpt sub exch vpt add M
  0 vpt2 neg V hpt2 0 V 0 vpt2 V
  hpt2 neg 0 V Opaque stroke} def
/TriUW {stroke [] 0 setdash vpt 1.12 mul add M
  hpt neg vpt -1.62 mul V
  hpt 2 mul 0 V
  hpt neg vpt 1.62 mul V Opaque stroke} def
/TriDW {stroke [] 0 setdash vpt 1.12 mul sub M
  hpt neg vpt 1.62 mul V
  hpt 2 mul 0 V
  hpt neg vpt -1.62 mul V Opaque stroke} def
/PentW {stroke [] 0 setdash gsave
  translate 0 hpt M 4 {72 rotate 0 hpt L} repeat
  Opaque stroke grestore} def
/CircW {stroke [] 0 setdash 
  hpt 0 360 arc Opaque stroke} def
/BoxFill {gsave Rec 1 setgray fill grestore} def
/Density {
  /Fillden exch def
  currentrgbcolor
  /ColB exch def /ColG exch def /ColR exch def
  /ColR ColR Fillden mul Fillden sub 1 add def
  /ColG ColG Fillden mul Fillden sub 1 add def
  /ColB ColB Fillden mul Fillden sub 1 add def
  ColR ColG ColB setrgbcolor} def
/BoxColFill {gsave Rec PolyFill} def
/PolyFill {gsave Density fill grestore grestore} def
/h {rlineto rlineto rlineto gsave closepath fill grestore} bind def
%
% PostScript Level 1 Pattern Fill routine for rectangles
% Usage: x y w h s a XX PatternFill
%	x,y = lower left corner of box to be filled
%	w,h = width and height of box
%	  a = angle in degrees between lines and x-axis
%	 XX = 0/1 for no/yes cross-hatch
%
/PatternFill {gsave /PFa [ 9 2 roll ] def
  PFa 0 get PFa 2 get 2 div add PFa 1 get PFa 3 get 2 div add translate
  PFa 2 get -2 div PFa 3 get -2 div PFa 2 get PFa 3 get Rec
  TransparentPatterns {} {gsave 1 setgray fill grestore} ifelse
  clip
  currentlinewidth 0.5 mul setlinewidth
  /PFs PFa 2 get dup mul PFa 3 get dup mul add sqrt def
  0 0 M PFa 5 get rotate PFs -2 div dup translate
  0 1 PFs PFa 4 get div 1 add floor cvi
	{PFa 4 get mul 0 M 0 PFs V} for
  0 PFa 6 get ne {
	0 1 PFs PFa 4 get div 1 add floor cvi
	{PFa 4 get mul 0 2 1 roll M PFs 0 V} for
 } if
  stroke grestore} def
%
/languagelevel where
 {pop languagelevel} {1} ifelse
dup 2 lt
	{/InterpretLevel1 true def
	 /InterpretLevel3 false def}
	{/InterpretLevel1 Level1 def
	 2 gt
	    {/InterpretLevel3 Level3 def}
	    {/InterpretLevel3 false def}
	 ifelse }
 ifelse
%
% PostScript level 2 pattern fill definitions
%
/Level2PatternFill {
/Tile8x8 {/PaintType 2 /PatternType 1 /TilingType 1 /BBox [0 0 8 8] /XStep 8 /YStep 8}
	bind def
/KeepColor {currentrgbcolor [/Pattern /DeviceRGB] setcolorspace} bind def
<< Tile8x8
 /PaintProc {0.5 setlinewidth pop 0 0 M 8 8 L 0 8 M 8 0 L stroke} 
>> matrix makepattern
/Pat1 exch def
<< Tile8x8
 /PaintProc {0.5 setlinewidth pop 0 0 M 8 8 L 0 8 M 8 0 L stroke
	0 4 M 4 8 L 8 4 L 4 0 L 0 4 L stroke}
>> matrix makepattern
/Pat2 exch def
<< Tile8x8
 /PaintProc {0.5 setlinewidth pop 0 0 M 0 8 L
	8 8 L 8 0 L 0 0 L fill}
>> matrix makepattern
/Pat3 exch def
<< Tile8x8
 /PaintProc {0.5 setlinewidth pop -4 8 M 8 -4 L
	0 12 M 12 0 L stroke}
>> matrix makepattern
/Pat4 exch def
<< Tile8x8
 /PaintProc {0.5 setlinewidth pop -4 0 M 8 12 L
	0 -4 M 12 8 L stroke}
>> matrix makepattern
/Pat5 exch def
<< Tile8x8
 /PaintProc {0.5 setlinewidth pop -2 8 M 4 -4 L
	0 12 M 8 -4 L 4 12 M 10 0 L stroke}
>> matrix makepattern
/Pat6 exch def
<< Tile8x8
 /PaintProc {0.5 setlinewidth pop -2 0 M 4 12 L
	0 -4 M 8 12 L 4 -4 M 10 8 L stroke}
>> matrix makepattern
/Pat7 exch def
<< Tile8x8
 /PaintProc {0.5 setlinewidth pop 8 -2 M -4 4 L
	12 0 M -4 8 L 12 4 M 0 10 L stroke}
>> matrix makepattern
/Pat8 exch def
<< Tile8x8
 /PaintProc {0.5 setlinewidth pop 0 -2 M 12 4 L
	-4 0 M 12 8 L -4 4 M 8 10 L stroke}
>> matrix makepattern
/Pat9 exch def
/Pattern1 {PatternBgnd KeepColor Pat1 setpattern} bind def
/Pattern2 {PatternBgnd KeepColor Pat2 setpattern} bind def
/Pattern3 {PatternBgnd KeepColor Pat3 setpattern} bind def
/Pattern4 {PatternBgnd KeepColor Landscape {Pat5} {Pat4} ifelse setpattern} bind def
/Pattern5 {PatternBgnd KeepColor Landscape {Pat4} {Pat5} ifelse setpattern} bind def
/Pattern6 {PatternBgnd KeepColor Landscape {Pat9} {Pat6} ifelse setpattern} bind def
/Pattern7 {PatternBgnd KeepColor Landscape {Pat8} {Pat7} ifelse setpattern} bind def
} def
%
%
%End of PostScript Level 2 code
%
/PatternBgnd {
  TransparentPatterns {} {gsave 1 setgray fill grestore} ifelse
} def
%
% Substitute for Level 2 pattern fill codes with
% grayscale if Level 2 support is not selected.
%
/Level1PatternFill {
/Pattern1 {0.250 Density} bind def
/Pattern2 {0.500 Density} bind def
/Pattern3 {0.750 Density} bind def
/Pattern4 {0.125 Density} bind def
/Pattern5 {0.375 Density} bind def
/Pattern6 {0.625 Density} bind def
/Pattern7 {0.875 Density} bind def
} def
%
% Now test for support of Level 2 code
%
Level1 {Level1PatternFill} {Level2PatternFill} ifelse
%
/Symbol-Oblique /Symbol findfont [1 0 .167 1 0 0] makefont
dup length dict begin {1 index /FID eq {pop pop} {def} ifelse} forall
currentdict end definefont pop
%
/MFshow {
   { dup 5 get 3 ge
     { 5 get 3 eq {gsave} {grestore} ifelse }
     {dup dup 0 get findfont exch 1 get scalefont setfont
     [ currentpoint ] exch dup 2 get 0 exch R dup 5 get 2 ne {dup dup 6
     get exch 4 get {textshow} {stringwidth pop 0 R} ifelse }if dup 5 get 0 eq
     {dup 3 get {2 get neg 0 exch R pop} {pop aload pop M} ifelse} {dup 5
     get 1 eq {dup 2 get exch dup 3 get exch 6 get stringwidth pop -2 div
     dup 0 R} {dup 6 get stringwidth pop -2 div 0 R 6 get
     textshow 2 index {aload pop M neg 3 -1 roll neg R pop pop} {pop pop pop
     pop aload pop M} ifelse }ifelse }ifelse }
     ifelse }
   forall} def
/Gswidth {dup type /stringtype eq {stringwidth} {pop (n) stringwidth} ifelse} def
/MFwidth {0 exch { dup 5 get 3 ge { 5 get 3 eq { 0 } { pop } ifelse }
 {dup 3 get{dup dup 0 get findfont exch 1 get scalefont setfont
     6 get Gswidth pop add} {pop} ifelse} ifelse} forall} def
/MLshow { currentpoint stroke M
  0 exch R
  Blacktext {gsave 0 setgray MFshow grestore} {MFshow} ifelse } bind def
/MRshow { currentpoint stroke M
  exch dup MFwidth neg 3 -1 roll R
  Blacktext {gsave 0 setgray MFshow grestore} {MFshow} ifelse } bind def
/MCshow { currentpoint stroke M
  exch dup MFwidth -2 div 3 -1 roll R
  Blacktext {gsave 0 setgray MFshow grestore} {MFshow} ifelse } bind def
/XYsave    { [( ) 1 2 true false 3 ()] } bind def
/XYrestore { [( ) 1 2 true false 4 ()] } bind def
Level1 SuppressPDFMark or 
{} {
/SDict 10 dict def
systemdict /pdfmark known not {
  userdict /pdfmark systemdict /cleartomark get put
} if
SDict begin [
  /Title (plot_sigmay.eps)
  /Subject (gnuplot plot)
  /Creator (gnuplot 5.0 patchlevel 0)
  /Author (alatina)
%  /Producer (gnuplot)
%  /Keywords ()
  /CreationDate (Wed Feb  3 14:21:17 2016)
  /DOCINFO pdfmark
end
} ifelse
end
%
% Support for boxed text - Ethan A Merritt May 2005
%
/InitTextBox { userdict /TBy2 3 -1 roll put userdict /TBx2 3 -1 roll put
           userdict /TBy1 3 -1 roll put userdict /TBx1 3 -1 roll put
	   /Boxing true def } def
/ExtendTextBox { Boxing
    { gsave dup false charpath pathbbox
      dup TBy2 gt {userdict /TBy2 3 -1 roll put} {pop} ifelse
      dup TBx2 gt {userdict /TBx2 3 -1 roll put} {pop} ifelse
      dup TBy1 lt {userdict /TBy1 3 -1 roll put} {pop} ifelse
      dup TBx1 lt {userdict /TBx1 3 -1 roll put} {pop} ifelse
      grestore } if } def
/PopTextBox { newpath TBx1 TBxmargin sub TBy1 TBymargin sub M
               TBx1 TBxmargin sub TBy2 TBymargin add L
	       TBx2 TBxmargin add TBy2 TBymargin add L
	       TBx2 TBxmargin add TBy1 TBymargin sub L closepath } def
/DrawTextBox { PopTextBox stroke /Boxing false def} def
/FillTextBox { gsave PopTextBox 1 1 1 setrgbcolor fill grestore /Boxing false def} def
0 0 0 0 InitTextBox
/TBxmargin 20 def
/TBymargin 20 def
/Boxing false def
/textshow { ExtendTextBox Gshow } def
%
%%EndProlog
%%Page: 1 1
gnudict begin
gsave
doclip
50 50 translate
0.050 0.050 scale
0 setgray
newpath
(Helvetica) findfont 220 scalefont setfont
BackgroundColor 0 lt 3 1 roll 0 lt exch 0 lt or or not {BackgroundColor C 1.000 0 0 7200.00 5040.00 BoxColFill} if
1.000 UL
LTb
LCb setrgbcolor
1474 704 M
63 0 V
5266 0 R
-63 0 V
stroke
1342 704 M
[ [(Helvetica) 220.0 0.0 true true 0 ( 100)]
] -73.3 MRshow
1.000 UL
LTb
LCb setrgbcolor
1474 1010 M
31 0 V
5298 0 R
-31 0 V
1474 1190 M
31 0 V
5298 0 R
-31 0 V
1474 1317 M
31 0 V
5298 0 R
-31 0 V
-5298 98 R
31 0 V
5298 0 R
-31 0 V
-5298 81 R
31 0 V
5298 0 R
-31 0 V
-5298 68 R
31 0 V
5298 0 R
-31 0 V
-5298 59 R
31 0 V
5298 0 R
-31 0 V
-5298 52 R
31 0 V
5298 0 R
-31 0 V
-5298 47 R
63 0 V
5266 0 R
-63 0 V
stroke
1342 1722 M
[ [(Helvetica) 220.0 0.0 true true 0 ( 1000)]
] -73.3 MRshow
1.000 UL
LTb
LCb setrgbcolor
1474 2028 M
31 0 V
5298 0 R
-31 0 V
1474 2207 M
31 0 V
5298 0 R
-31 0 V
1474 2334 M
31 0 V
5298 0 R
-31 0 V
-5298 99 R
31 0 V
5298 0 R
-31 0 V
-5298 81 R
31 0 V
5298 0 R
-31 0 V
-5298 68 R
31 0 V
5298 0 R
-31 0 V
-5298 59 R
31 0 V
5298 0 R
-31 0 V
-5298 52 R
31 0 V
5298 0 R
-31 0 V
-5298 47 R
63 0 V
5266 0 R
-63 0 V
stroke
1342 2740 M
[ [(Helvetica) 220.0 0.0 true true 0 ( 10000)]
] -73.3 MRshow
1.000 UL
LTb
LCb setrgbcolor
1474 3046 M
31 0 V
5298 0 R
-31 0 V
1474 3225 M
31 0 V
5298 0 R
-31 0 V
1474 3352 M
31 0 V
5298 0 R
-31 0 V
-5298 99 R
31 0 V
5298 0 R
-31 0 V
-5298 80 R
31 0 V
5298 0 R
-31 0 V
-5298 69 R
31 0 V
5298 0 R
-31 0 V
-5298 59 R
31 0 V
5298 0 R
-31 0 V
-5298 52 R
31 0 V
5298 0 R
-31 0 V
-5298 46 R
63 0 V
5266 0 R
-63 0 V
stroke
1342 3757 M
[ [(Helvetica) 220.0 0.0 true true 0 ( 100000)]
] -73.3 MRshow
1.000 UL
LTb
LCb setrgbcolor
1474 4064 M
31 0 V
5298 0 R
-31 0 V
1474 4243 M
31 0 V
5298 0 R
-31 0 V
1474 4370 M
31 0 V
5298 0 R
-31 0 V
-5298 99 R
31 0 V
5298 0 R
-31 0 V
-5298 80 R
31 0 V
5298 0 R
-31 0 V
-5298 68 R
31 0 V
5298 0 R
-31 0 V
-5298 59 R
31 0 V
5298 0 R
-31 0 V
-5298 52 R
31 0 V
5298 0 R
-31 0 V
-5298 47 R
63 0 V
5266 0 R
-63 0 V
stroke
1342 4775 M
[ [(Helvetica) 220.0 0.0 true true 0 ( 1x10)]
[(Helvetica) 176.0 110.0 true true 0 (6)]
] -95.3 MRshow
1.000 UL
LTb
LCb setrgbcolor
1474 704 M
0 63 V
0 4008 R
0 -63 V
stroke
1474 484 M
[ [(Helvetica) 220.0 0.0 true true 0 ( 0)]
] -73.3 MCshow
1.000 UL
LTb
LCb setrgbcolor
2007 704 M
0 63 V
0 4008 R
0 -63 V
stroke
2007 484 M
[ [(Helvetica) 220.0 0.0 true true 0 ( 10)]
] -73.3 MCshow
1.000 UL
LTb
LCb setrgbcolor
2540 704 M
0 63 V
0 4008 R
0 -63 V
stroke
2540 484 M
[ [(Helvetica) 220.0 0.0 true true 0 ( 20)]
] -73.3 MCshow
1.000 UL
LTb
LCb setrgbcolor
3073 704 M
0 63 V
0 4008 R
0 -63 V
stroke
3073 484 M
[ [(Helvetica) 220.0 0.0 true true 0 ( 30)]
] -73.3 MCshow
1.000 UL
LTb
LCb setrgbcolor
3606 704 M
0 63 V
0 4008 R
0 -63 V
stroke
3606 484 M
[ [(Helvetica) 220.0 0.0 true true 0 ( 40)]
] -73.3 MCshow
1.000 UL
LTb
LCb setrgbcolor
4139 704 M
0 63 V
0 4008 R
0 -63 V
stroke
4139 484 M
[ [(Helvetica) 220.0 0.0 true true 0 ( 50)]
] -73.3 MCshow
1.000 UL
LTb
LCb setrgbcolor
4671 704 M
0 63 V
0 4008 R
0 -63 V
stroke
4671 484 M
[ [(Helvetica) 220.0 0.0 true true 0 ( 60)]
] -73.3 MCshow
1.000 UL
LTb
LCb setrgbcolor
5204 704 M
0 63 V
0 4008 R
0 -63 V
stroke
5204 484 M
[ [(Helvetica) 220.0 0.0 true true 0 ( 70)]
] -73.3 MCshow
1.000 UL
LTb
LCb setrgbcolor
5737 704 M
0 63 V
0 4008 R
0 -63 V
stroke
5737 484 M
[ [(Helvetica) 220.0 0.0 true true 0 ( 80)]
] -73.3 MCshow
1.000 UL
LTb
LCb setrgbcolor
6270 704 M
0 63 V
0 4008 R
0 -63 V
stroke
6270 484 M
[ [(Helvetica) 220.0 0.0 true true 0 ( 90)]
] -73.3 MCshow
1.000 UL
LTb
LCb setrgbcolor
6803 704 M
0 63 V
0 4008 R
0 -63 V
stroke
6803 484 M
[ [(Helvetica) 220.0 0.0 true true 0 ( 100)]
] -73.3 MCshow
1.000 UL
LTb
LCb setrgbcolor
1.000 UL
LTb
LCb setrgbcolor
1474 4775 N
0 -4071 V
5329 0 V
0 4071 V
-5329 0 V
Z stroke
1.000 UP
1.000 UL
LTb
LCb setrgbcolor
LCb setrgbcolor
176 2739 M
currentpoint gsave translate -270 rotate 0 0 moveto
[ [(Symbol) 220.0 0.0 true true 0 (s)]
[(Helvetica) 176.0 -66.0 true true 0 (y)]
[(Helvetica) 220.0 0.0 true true 0 ( [nm])]
] -51.3 MCshow
grestore
LTb
LCb setrgbcolor
4138 154 M
[ [(Helvetica) 220.0 0.0 true true 0 (S [m])]
] -73.3 MCshow
LTb
% Begin plot #1
1.000 UP
1.000 UL
LTb
0.58 0.00 0.83 C LCb setrgbcolor
5816 4602 M
[ [(Helvetica) 220.0 0.0 true true 0 (BBA w/o quads)]
] -73.3 MRshow
1.000 UP
1.000 UL
LTb
0.58 0.00 0.83 C 5948 4602 M
591 0 V
1474 2528 M
13 60 V
14 51 V
340 158 V
2 5 V
9 16 V
6 24 V
101 563 V
5 6 V
47 -273 V
5 -40 V
224 -32 V
5 28 V
47 301 V
5 15 V
101 -467 V
6 -34 V
2 -10 V
2 0 V
164 60 V
2 3 V
116 285 V
5 3 V
109 -573 V
5 -53 V
124 -61 V
2 14 V
11 47 V
5 18 V
72 -335 V
6 -16 V
59 268 V
2 9 V
11 29 V
5 9 V
50 -273 V
5 -21 V
50 237 V
5 12 V
50 -208 V
5 -8 V
38 238 V
2 11 V
10 36 V
6 14 V
72 -337 V
5 -16 V
59 268 V
2 9 V
60 191 V
6 7 V
71 -252 V
6 -18 V
204 296 V
3 2 V
204 -226 V
2 1 V
208 416 V
5 8 V
75 92 V
5 13 V
75 327 V
5 -3 V
75 -36 V
5 72 V
75 628 V
5 20 V
80 116 V
5 9 V
75 181 V
5 8 V
43 -15 V
5 -6 V
64 -229 V
5 -22 V
55 -119 V
5 -9 V
91 54 V
5 -4 V
96 -1206 V
5 -535 V
24 1167 V
16 204 V
17 139 V
39 198 V
6 17 V
90 -40 V
6 2 V
54 119 V
5 14 V
64 240 V
5 12 V
55 24 V
5 -2 V
82 -230 V
17 -62 V
16 -71 V
29 -131 V
5 -28 V
24 -77 V
16 -45 V
17 -51 V
29 -86 V
stroke 5714 3642 M
5 -23 V
85 -679 V
6 95 V
285 1151 V
12 35 V
60 304 V
13 12 V
53 -2894 V
49 2629 V
1474 2528 Pls
1487 2588 Pls
1487 2588 Pls
1501 2639 Pls
1841 2797 Pls
1843 2802 Pls
1852 2818 Pls
1858 2842 Pls
1959 3405 Pls
1964 3411 Pls
2011 3138 Pls
2016 3098 Pls
2240 3066 Pls
2245 3094 Pls
2292 3395 Pls
2297 3410 Pls
2398 2943 Pls
2404 2909 Pls
2406 2899 Pls
2408 2899 Pls
2572 2959 Pls
2574 2962 Pls
2690 3247 Pls
2695 3250 Pls
2804 2677 Pls
2809 2624 Pls
2933 2563 Pls
2935 2577 Pls
2946 2624 Pls
2951 2642 Pls
3023 2307 Pls
3029 2291 Pls
3088 2559 Pls
3090 2568 Pls
3101 2597 Pls
3106 2606 Pls
3156 2333 Pls
3161 2312 Pls
3211 2549 Pls
3216 2561 Pls
3266 2353 Pls
3271 2345 Pls
3309 2583 Pls
3311 2594 Pls
3321 2630 Pls
3327 2644 Pls
3399 2307 Pls
3404 2291 Pls
3463 2559 Pls
3465 2568 Pls
3525 2759 Pls
3531 2766 Pls
3602 2514 Pls
3608 2496 Pls
3812 2792 Pls
3815 2794 Pls
4019 2568 Pls
4021 2569 Pls
4229 2985 Pls
4234 2993 Pls
4309 3085 Pls
4314 3098 Pls
4389 3425 Pls
4394 3422 Pls
4469 3386 Pls
4474 3458 Pls
4549 4086 Pls
4554 4106 Pls
4634 4222 Pls
4639 4231 Pls
4714 4412 Pls
4719 4420 Pls
4762 4405 Pls
4767 4399 Pls
4831 4170 Pls
4836 4148 Pls
4891 4029 Pls
4896 4020 Pls
4987 4074 Pls
4992 4070 Pls
5088 2864 Pls
5093 2329 Pls
5117 3496 Pls
5133 3700 Pls
5133 3700 Pls
5150 3839 Pls
5189 4037 Pls
5195 4054 Pls
5285 4014 Pls
5291 4016 Pls
5345 4135 Pls
5350 4149 Pls
5414 4389 Pls
5419 4401 Pls
5474 4425 Pls
5479 4423 Pls
5561 4193 Pls
5578 4131 Pls
5578 4131 Pls
5594 4060 Pls
5623 3929 Pls
5628 3901 Pls
5652 3824 Pls
5668 3779 Pls
5668 3779 Pls
5685 3728 Pls
5714 3642 Pls
5719 3619 Pls
5804 2940 Pls
5810 3035 Pls
6095 4186 Pls
6107 4221 Pls
6167 4525 Pls
6180 4537 Pls
6233 1643 Pls
6282 4272 Pls
6243 4602 Pls
% End plot #1
% Begin plot #2
1.000 UP
1.000 UL
LTb
0.00 0.62 0.45 C LCb setrgbcolor
5816 4382 M
[ [(Helvetica) 220.0 0.0 true true 0 (BBA w/ quads)]
] -73.3 MRshow
1.000 UP
1.000 UL
LTb
0.00 0.62 0.45 C 5948 4382 M
591 0 V
1474 2528 M
13 60 V
14 51 V
340 158 V
2 5 V
9 16 V
6 24 V
101 563 V
5 6 V
47 -273 V
5 -40 V
224 -32 V
5 28 V
47 301 V
5 15 V
101 -467 V
6 -34 V
2 -10 V
2 0 V
164 60 V
2 3 V
116 285 V
5 3 V
109 -574 V
5 -53 V
124 -60 V
2 14 V
11 47 V
5 18 V
72 -336 V
6 -16 V
59 269 V
2 8 V
11 29 V
5 9 V
50 -272 V
5 -20 V
50 237 V
5 12 V
50 -208 V
5 -8 V
38 238 V
2 10 V
10 37 V
6 13 V
72 -338 V
5 -16 V
59 269 V
2 8 V
60 192 V
6 7 V
71 -252 V
6 -17 V
204 296 V
3 2 V
204 -226 V
2 0 V
208 416 V
5 7 V
75 92 V
5 13 V
75 328 V
5 -4 V
75 -36 V
5 72 V
75 629 V
5 20 V
80 116 V
5 9 V
75 181 V
5 7 V
43 -15 V
5 -6 V
64 -229 V
5 -21 V
55 -120 V
5 -9 V
91 52 V
5 -3 V
96 -1229 V
5 -589 V
24 1251 V
16 202 V
17 138 V
39 198 V
6 17 V
90 -41 V
6 1 V
54 118 V
5 14 V
64 240 V
5 12 V
55 24 V
5 -1 V
82 -230 V
17 -62 V
16 -71 V
29 -129 V
5 -29 V
24 -75 V
16 -44 V
17 -50 V
29 -83 V
stroke 5714 3650 M
5 -23 V
85 -807 V
6 124 V
285 1241 V
12 35 V
60 304 V
13 11 V
53 -3413 V
49 3148 V
1474 2528 Crs
1487 2588 Crs
1487 2588 Crs
1501 2639 Crs
1841 2797 Crs
1843 2802 Crs
1852 2818 Crs
1858 2842 Crs
1959 3405 Crs
1964 3411 Crs
2011 3138 Crs
2016 3098 Crs
2240 3066 Crs
2245 3094 Crs
2292 3395 Crs
2297 3410 Crs
2398 2943 Crs
2404 2909 Crs
2406 2899 Crs
2408 2899 Crs
2572 2959 Crs
2574 2962 Crs
2690 3247 Crs
2695 3250 Crs
2804 2676 Crs
2809 2623 Crs
2933 2563 Crs
2935 2577 Crs
2946 2624 Crs
2951 2642 Crs
3023 2306 Crs
3029 2290 Crs
3088 2559 Crs
3090 2567 Crs
3101 2596 Crs
3106 2605 Crs
3156 2333 Crs
3161 2313 Crs
3211 2550 Crs
3216 2562 Crs
3266 2354 Crs
3271 2346 Crs
3309 2584 Crs
3311 2594 Crs
3321 2631 Crs
3327 2644 Crs
3399 2306 Crs
3404 2290 Crs
3463 2559 Crs
3465 2567 Crs
3525 2759 Crs
3531 2766 Crs
3602 2514 Crs
3608 2497 Crs
3812 2793 Crs
3815 2795 Crs
4019 2569 Crs
4021 2569 Crs
4229 2985 Crs
4234 2992 Crs
4309 3084 Crs
4314 3097 Crs
4389 3425 Crs
4394 3421 Crs
4469 3385 Crs
4474 3457 Crs
4549 4086 Crs
4554 4106 Crs
4634 4222 Crs
4639 4231 Crs
4714 4412 Crs
4719 4419 Crs
4762 4404 Crs
4767 4398 Crs
4831 4169 Crs
4836 4148 Crs
4891 4028 Crs
4896 4019 Crs
4987 4071 Crs
4992 4068 Crs
5088 2839 Crs
5093 2250 Crs
5117 3501 Crs
5133 3703 Crs
5133 3703 Crs
5150 3841 Crs
5189 4039 Crs
5195 4056 Crs
5285 4015 Crs
5291 4016 Crs
5345 4134 Crs
5350 4148 Crs
5414 4388 Crs
5419 4400 Crs
5474 4424 Crs
5479 4423 Crs
5561 4193 Crs
5578 4131 Crs
5578 4131 Crs
5594 4060 Crs
5623 3931 Crs
5628 3902 Crs
5652 3827 Crs
5668 3783 Crs
5668 3783 Crs
5685 3733 Crs
5714 3650 Crs
5719 3627 Crs
5804 2820 Crs
5810 2944 Crs
6095 4185 Crs
6107 4220 Crs
6167 4524 Crs
6180 4535 Crs
6233 1122 Crs
6282 4270 Crs
6243 4382 Crs
% End plot #2
2.000 UL
LTb
LCb setrgbcolor
1.000 UL
LTb
LCb setrgbcolor
1474 4775 N
0 -4071 V
5329 0 V
0 4071 V
-5329 0 V
Z stroke
1.000 UP
1.000 UL
LTb
LCb setrgbcolor
stroke
grestore
end
showpage
%%Page: 2 2
gnudict begin
gsave
doclip
50 50 translate
0.050 0.050 scale
0 setgray
newpath
(Helvetica) findfont 220 scalefont setfont
BackgroundColor 0 lt 3 1 roll 0 lt exch 0 lt or or not {BackgroundColor C 1.000 0 0 7200.00 5040.00 BoxColFill} if
1.000 UL
LTb
LCb setrgbcolor
1474 704 M
63 0 V
5266 0 R
-63 0 V
stroke
1342 704 M
[ [(Helvetica) 220.0 0.0 true true 0 ( 100)]
] -73.3 MRshow
1.000 UL
LTb
LCb setrgbcolor
1474 1010 M
31 0 V
5298 0 R
-31 0 V
1474 1190 M
31 0 V
5298 0 R
-31 0 V
1474 1317 M
31 0 V
5298 0 R
-31 0 V
-5298 98 R
31 0 V
5298 0 R
-31 0 V
-5298 81 R
31 0 V
5298 0 R
-31 0 V
-5298 68 R
31 0 V
5298 0 R
-31 0 V
-5298 59 R
31 0 V
5298 0 R
-31 0 V
-5298 52 R
31 0 V
5298 0 R
-31 0 V
-5298 47 R
63 0 V
5266 0 R
-63 0 V
stroke
1342 1722 M
[ [(Helvetica) 220.0 0.0 true true 0 ( 1000)]
] -73.3 MRshow
1.000 UL
LTb
LCb setrgbcolor
1474 2028 M
31 0 V
5298 0 R
-31 0 V
1474 2207 M
31 0 V
5298 0 R
-31 0 V
1474 2334 M
31 0 V
5298 0 R
-31 0 V
-5298 99 R
31 0 V
5298 0 R
-31 0 V
-5298 81 R
31 0 V
5298 0 R
-31 0 V
-5298 68 R
31 0 V
5298 0 R
-31 0 V
-5298 59 R
31 0 V
5298 0 R
-31 0 V
-5298 52 R
31 0 V
5298 0 R
-31 0 V
-5298 47 R
63 0 V
5266 0 R
-63 0 V
stroke
1342 2740 M
[ [(Helvetica) 220.0 0.0 true true 0 ( 10000)]
] -73.3 MRshow
1.000 UL
LTb
LCb setrgbcolor
1474 3046 M
31 0 V
5298 0 R
-31 0 V
1474 3225 M
31 0 V
5298 0 R
-31 0 V
1474 3352 M
31 0 V
5298 0 R
-31 0 V
-5298 99 R
31 0 V
5298 0 R
-31 0 V
-5298 80 R
31 0 V
5298 0 R
-31 0 V
-5298 69 R
31 0 V
5298 0 R
-31 0 V
-5298 59 R
31 0 V
5298 0 R
-31 0 V
-5298 52 R
31 0 V
5298 0 R
-31 0 V
-5298 46 R
63 0 V
5266 0 R
-63 0 V
stroke
1342 3757 M
[ [(Helvetica) 220.0 0.0 true true 0 ( 100000)]
] -73.3 MRshow
1.000 UL
LTb
LCb setrgbcolor
1474 4064 M
31 0 V
5298 0 R
-31 0 V
1474 4243 M
31 0 V
5298 0 R
-31 0 V
1474 4370 M
31 0 V
5298 0 R
-31 0 V
-5298 99 R
31 0 V
5298 0 R
-31 0 V
-5298 80 R
31 0 V
5298 0 R
-31 0 V
-5298 68 R
31 0 V
5298 0 R
-31 0 V
-5298 59 R
31 0 V
5298 0 R
-31 0 V
-5298 52 R
31 0 V
5298 0 R
-31 0 V
-5298 47 R
63 0 V
5266 0 R
-63 0 V
stroke
1342 4775 M
[ [(Helvetica) 220.0 0.0 true true 0 ( 1x10)]
[(Helvetica) 176.0 110.0 true true 0 (6)]
] -95.3 MRshow
1.000 UL
LTb
LCb setrgbcolor
1474 704 M
0 63 V
0 4008 R
0 -63 V
stroke
1474 484 M
[ [(Helvetica) 220.0 0.0 true true 0 ( 85)]
] -73.3 MCshow
1.000 UL
LTb
LCb setrgbcolor
2362 704 M
0 63 V
0 4008 R
0 -63 V
stroke
2362 484 M
[ [(Helvetica) 220.0 0.0 true true 0 ( 86)]
] -73.3 MCshow
1.000 UL
LTb
LCb setrgbcolor
3250 704 M
0 63 V
0 4008 R
0 -63 V
stroke
3250 484 M
[ [(Helvetica) 220.0 0.0 true true 0 ( 87)]
] -73.3 MCshow
1.000 UL
LTb
LCb setrgbcolor
4139 704 M
0 63 V
0 4008 R
0 -63 V
stroke
4139 484 M
[ [(Helvetica) 220.0 0.0 true true 0 ( 88)]
] -73.3 MCshow
1.000 UL
LTb
LCb setrgbcolor
5027 704 M
0 63 V
0 4008 R
0 -63 V
stroke
5027 484 M
[ [(Helvetica) 220.0 0.0 true true 0 ( 89)]
] -73.3 MCshow
1.000 UL
LTb
LCb setrgbcolor
5915 704 M
0 63 V
0 4008 R
0 -63 V
stroke
5915 484 M
[ [(Helvetica) 220.0 0.0 true true 0 ( 90)]
] -73.3 MCshow
1.000 UL
LTb
LCb setrgbcolor
6803 704 M
0 63 V
0 4008 R
0 -63 V
stroke
6803 484 M
[ [(Helvetica) 220.0 0.0 true true 0 ( 91)]
] -73.3 MCshow
1.000 UL
LTb
LCb setrgbcolor
1.000 UL
LTb
LCb setrgbcolor
1474 4775 N
0 -4071 V
5329 0 V
0 4071 V
-5329 0 V
Z stroke
1.000 UP
1.000 UL
LTb
LCb setrgbcolor
LCb setrgbcolor
176 2739 M
currentpoint gsave translate -270 rotate 0 0 moveto
[ [(Symbol) 220.0 0.0 true true 0 (s)]
[(Helvetica) 176.0 -66.0 true true 0 (y)]
[(Helvetica) 220.0 0.0 true true 0 ( [nm])]
] -51.3 MCshow
grestore
LTb
LCb setrgbcolor
4138 154 M
[ [(Helvetica) 220.0 0.0 true true 0 (S [m])]
] -73.3 MCshow
LTb
% Begin plot #1
1.000 UP
1.000 UL
LTb
0.58 0.00 0.83 C LCb setrgbcolor
5816 4602 M
[ [(Helvetica) 220.0 0.0 true true 0 (BBA w/o quads)]
] -73.3 MRshow
1.000 UP
1.000 UL
LTb
0.58 0.00 0.83 C 5948 4602 M
591 0 V
1474 3819 M
1518 367 V
197 35 V
1015 304 V
211 12 V
5292 1643 L
824 2629 V
2992 4186 Pls
3189 4221 Pls
4204 4525 Pls
4415 4537 Pls
5292 1643 Pls
6116 4272 Pls
6243 4602 Pls
% End plot #1
% Begin plot #2
1.000 UP
1.000 UL
LTb
0.00 0.62 0.45 C LCb setrgbcolor
5816 4382 M
[ [(Helvetica) 220.0 0.0 true true 0 (BBA w/ quads)]
] -73.3 MRshow
1.000 UP
1.000 UL
LTb
0.00 0.62 0.45 C 5948 4382 M
591 0 V
1474 3789 M
1518 396 V
197 35 V
1015 304 V
211 11 V
5292 1122 L
824 3148 V
2992 4185 Crs
3189 4220 Crs
4204 4524 Crs
4415 4535 Crs
5292 1122 Crs
6116 4270 Crs
6243 4382 Crs
% End plot #2
2.000 UL
LTb
LCb setrgbcolor
1.000 UL
LTb
LCb setrgbcolor
1474 4775 N
0 -4071 V
5329 0 V
0 4071 V
-5329 0 V
Z stroke
1.000 UP
1.000 UL
LTb
LCb setrgbcolor
stroke
grestore
end
showpage
%%Trailer
%%DocumentFonts: Symbol Helvetica
