QD20X 0.059000 
QD20X 0.098335 
QF21X 3.937670 
QF21X 3.977005 
QM16FF 7.877005 
QM16FF 7.976250 
QM15FF 9.377005 
QM15FF 9.476250 
QM14FF 10.877005 
QM14FF 10.976250 
QM13FF 12.377005 
QM13FF 12.476250 
QM12FF 13.877005 
QM12FF 13.976250 
QM11FF 15.477005 
QM11FF 15.576250 
QD10BFF 16.977005 
QD10BFF 17.076250 
QD10AFF 17.877005 
QD10AFF 17.976250 
QF9BFF 19.177005 
QF9BFF 19.276250 
QF9AFF 20.297005 
QF9AFF 20.396250 
QD8FF 22.097005 
QD8FF 22.196250 
QF7FF 23.997005 
QF7FF 24.096250 
B5FFMULT1 24.540615 
B5FFMULT1 24.847046 
B5FFMULT1 24.847046 
B5FFMULT1 25.153478 
QD6FF 25.897088 
QD6FF 25.996333 
QF5BFF 27.697088 
QF5BFF 27.796333 
QF5AFF 28.817088 
QF5AFF 28.916333 
QD4BFF 30.117088 
QD4BFF 30.216333 
QD4AFF 31.237088 
QD4AFF 31.336333 
B2FFMULT1 32.880718 
B2FFMULT1 33.187129 
B2FFMULT1 33.187129 
B2FFMULT1 33.493541 
QF3FF 34.037171 
QF3FF 34.136416 
B1FFMULT1 34.580776 
B1FFMULT1 34.887212 
B1FFMULT1 34.887212 
B1FFMULT1 35.193649 
QD2BFF 35.737254 
QD2BFF 35.836499 
QD2AFF 37.437254 
QD2AFF 37.536499 
QF1FF 42.887254 
QF1FF 43.109304 
QD0FF 44.252254 
QD0FF 44.489754 
IP 45.477254 
