MB2X 5.100094 1.800601 0.762632 
MQF1X 7.213399 0.270373 -5.501022 
MQD2X 9.212009 -2.642572 0.110890 
MQF3X 10.195119 3.156769 3.964111 
MQF4X 14.500588 0.598742 -3.551978 
MQD5X 15.219698 -5.097550 3.796280 
MQF6X 17.230308 -0.790239 -2.793434 
MQF7X 20.670189 -0.597337 2.213120 
MQD8X 22.928710 2.840123 -3.679945 
MQF9X 24.807619 -0.940895 -0.004454 
FONTP1 27.220370 0.031267 -0.156068 
MQD10X 27.745370 0.129072 0.152083 
MQF11X 29.195370 -0.109322 -0.161127 
FONTP2 30.123370 -0.600057 0.797731 
MQD12X 30.645370 -0.106826 0.230697 
MQF13X 31.713769 -2.339979 -1.134234 
MQD14X 32.749308 -4.285819 -1.621157 
FONTP3 33.025308 -0.078519 -0.492157 
MQF15X 33.784848 0.450329 -2.556944 
MQD16X 34.783246 -0.203991 -0.089665 
MQF17X 36.233246 0.400806 0.155724 
MQD18X 38.615746 0.008549 -0.007931 
MQF19X 40.060396 -0.451537 0.068365 
MQD20X 43.821731 0.377836 -0.234366 
MQF21X 47.818401 -0.255119 -0.237235 
MQM16FF 51.579736 0.065794 -0.008628 
MQM15FF 53.317736 0.363625 -0.546958 
MQM14FF 54.817736 0.180373 -0.830454 
MFB2FF 55.621691 0.796476 0.284664 
MQM13FF 56.317736 0.647920 0.400307 
MQM12FF 57.817736 0.242722 1.454501 
MQM11FF 59.417736 -0.015547 2.261933 
MQD10BFF 60.917736 -0.680819 3.263331 
MQD10AFF 61.817736 -0.835075 2.988020 
MQF9BFF 63.117736 -2.094054 1.792497 
MSF6FF 63.708567 -2.071806 1.594250 
MQF9AFF 64.237736 -2.901097 1.115042 
MQD8FF 66.037736 -4.401573 1.548090 
MQF7FF 67.937736 -9.903639 -0.445449 
MQD6FF 69.837819 -5.873736 -1.483718 
MQF5BFF 71.637819 -7.827199 -1.595178 
MSF5FF 72.228650 -6.818946 -1.878507 
MQF5AFF 72.757819 -5.323202 -1.946405 
MQD4BFF 74.057819 -0.476088 -3.356380 
MSD4FF 74.648650 1.941680 -3.056437 
MQD4AFF 75.177819 4.404321 -2.962120 
MQF3FF 77.977902 17.124794 -0.926603 
MQD2BFF 79.677985 9.456821 -0.249035 
MQD2AFF 81.377985 5.278485 0.258792 
MSF1FF 85.984985 1.473312 -0.139066 
MSD0FF 87.349985 1.984906 5.053376 
MPREIP 88.871985 0.930805 1.861929 
IPBPMA 89.147785 0.679502 0.635468 
IPBPMB 89.228785 0.726708 0.314941 
IPBPMC 89.387185 0.705593 -0.287049 
MPIP 89.923985 8.413803 -3.108120 
