ZH100RX 0 08
ZV100RX 0.08 
ZH101RX 0.08
ZV101RX 0.08
ZH1X 0.08
ZV1X 0.08
ZH2X 0.08
ZV2X 0.08
ZH3X 0.08
ZV3X 0.08
ZH4X 0.08
ZV4X 0.08
ZH5X 0.08 
ZV5X 0.08
ZH6X 0.08
ZV6X 0.08
ZH7X 0.08
ZV7X 0.08
ZH8X 0.08
ZV8X 0.08
ZH9X 0.08
ZV9X 0.08
ZH10X 0.08
ZV10X 0.08
ZH1FF 0.08
ZV1FF 0.08

