KEX1MULT1 0.000000 
KEX1MULT1 0.250001 
KEX1MULT1 0.250001 
KEX1MULT1 0.500002 
QS1X 6.879399 
QS1X 6.918734 
QF1X 7.099399 
QF1X 7.198704 
QD2X 9.098009 
QD2X 9.197314 
QF3X 10.069119 
QF3X 10.168424 
QF4X 14.374588 
QF4X 14.473893 
QD5X 15.345698 
QD5X 15.445003 
QF6X 17.344308 
QF6X 17.443613 
QS2X 17.488308 
QS2X 17.527643 
QF7X 20.604189 
QF7X 20.643524 
QD8X 22.814710 
QD8X 22.914015 
QF9X 24.961619 
QF9X 25.060924 
QK1X 27.385370 
QK1X 27.424705 
QD10X 27.626370 
QD10X 27.725615 
QF11X 29.076370 
QF11X 29.175615 
QK2X 30.287035 
QK2X 30.326370 
QD12X 30.526370 
QD12X 30.625615 
QF13X 31.559769 
QF13X 31.659141 
QD14X 32.595308 
QD14X 32.694681 
QF15X 33.630848 
QF15X 33.730220 
QK3X 34.424911 
QK3X 34.464246 
QD16X 34.664246 
QD16X 34.763491 
QF17X 36.114246 
QF17X 36.213491 
QK4X 37.323746 
QK4X 37.363081 
QD18X 38.496746 
QD18X 38.595991 
QF19X 39.941396 
QF19X 40.040641 
QD20X 43.880731 
QD20X 43.920066 
QF21X 47.759401 
QF21X 47.798736 
QM16FF 51.698736 
QM16FF 51.797981 
QM15FF 53.198736 
QM15FF 53.297981 
QM14FF 54.698736 
QM14FF 54.797981 
QM13FF 56.198736 
QM13FF 56.297981 
QM12FF 57.698736 
QM12FF 57.797981 
QM11FF 59.298736 
QM11FF 59.397981 
QD10BFF 60.798736 
QD10BFF 60.897981 
QD10AFF 61.698736 
QD10AFF 61.797981 
QF9BFF 62.998736 
QF9BFF 63.097981 
QF9AFF 64.118736 
QF9AFF 64.217981 
QD8FF 65.918736 
QD8FF 66.017981 
QF7FF 67.818736 
QF7FF 67.917981 
B5FFMULT1 68.362345 
B5FFMULT1 68.668777 
B5FFMULT1 68.668777 
B5FFMULT1 68.975209 
QD6FF 69.718819 
QD6FF 69.818064 
QF5BFF 71.518819 
QF5BFF 71.618064 
QF5AFF 72.638819 
QF5AFF 72.738064 
QD4BFF 73.938819 
QD4BFF 74.038064 
QD4AFF 75.058819 
QD4AFF 75.158064 
B2FFMULT1 76.702449 
B2FFMULT1 77.008860 
B2FFMULT1 77.008860 
B2FFMULT1 77.315272 
QF3FF 77.858902 
QF3FF 77.958147 
B1FFMULT1 78.402506 
B1FFMULT1 78.708943 
B1FFMULT1 78.708943 
B1FFMULT1 79.015380 
QD2BFF 79.558985 
QD2BFF 79.658230 
QD2AFF 81.258985 
QD2AFF 81.358230 
QF1FF 86.708985 
QF1FF 86.931035 
QD0FF 88.073985 
QD0FF 88.311485 
IP 89.298985 
