# Created by Octave 4.0.2, Thu Jun 01 16:11:02 2017 CEST <koryskol@oxjailap09>
# name: Response
# type: scalar struct
# ndims: 2
 1 1
# length: 14
# name: Cx
# type: matrix
# rows: 1
# columns: 13
 18 20 72 83 120 142 166 203 217 241 280 315 349


# name: Cy
# type: matrix
# rows: 1
# columns: 13
 22 40 60 74 90 100 127 146 184 223 261 301 351


# name: Bpms
# type: matrix
# rows: 1
# columns: 44
 24 35 48 65 70 81 85 102 118 125 137 148 164 180 201 208 214 239 254 274 293 307 322 335 365 379 387 402 416 431 461 523 540 554 603 664 746 781 801 808 983 985 987 994


# name: Ex
# type: matrix
# rows: 13
# columns: 1
 1.3
 1.3
 1.3
 1.3
 1.3
 1.3
 1.3
 1.3
 1.3
 1.3
 1.3
 1.3
 1.3


# name: Ey
# type: matrix
# rows: 13
# columns: 1
 1.3
 1.3
 1.3
 1.3
 1.3
 1.3
 1.3
 1.3
 1.3
 1.3
 1.3
 1.3
 1.3


# name: B0
# type: matrix
# rows: 44
# columns: 2
 1.357849792846009 -0.0069173376915381
 1.127919557887007 -0.03622250141442235
 -2.074075835144529 -0.07454553368265725
 -2.463070882626456 -0.2230193339881109
 -4.750861274986873 -0.1049832164200097
 -2.390589020766906 0.1360200193796028
 -0.8226933860570261 0.2338920474467308
 3.728662688630334 0.08537735133423979
 0.6749417783629288 0.08021825483787966
 0.3141317413439383 0.1405185562079208
 0.3351356523685938 0.0395318768349758
 -0.2624770898473262 -0.0348072097881014
 -0.4521183426465065 -0.04398024326545676
 -1.317608624451481 -0.01247177658324472
 -0.3962592599781474 -0.0001595676155532325
 -0.1152458932415463 0.01180821698874189
 0.421721212420895 0.02962467463330746
 0.3960878153062091 0.04278528728423575
 0.055376657459413 0.01243411558468122
 -0.7612409933197924 -0.005998007250292656
 -1.763374648392197 -0.01302640343819552
 -0.3692018823115794 -0.05784419193678597
 0.6791095826767021 -0.03704421643651297
 0.5437845518413601 -0.07677484827600291
 0.4445791342795066 -0.1022867972553015
 -0.06892273965013317 -0.1749511384525469
 -0.3741635332241017 0.0006124864264619488
 -0.5753692687011237 0.1661333429081404
 -0.3559440322520491 0.657380205121068
 -0.2429730637685414 0.9834232804161748
 -0.01153480641092234 1.334824268994967
 -0.9793873373950319 0.5935089349736079
 -3.670887531904004 0.667945757400774
 -9.474610256593373 0.003490781627106973
 -6.066728076234063 -0.5780807197591246
 0.6354207697750028 -1.398529796027326
 18.28956150628932 -0.4258559721482341
 11.56972287254352 -0.2157881873061246
 9.625534347435115 0.06690251190252815
 16.33457236513076 0.7665569701677879
 2.200377443610456 0.6997712499483005
 1.298106003683511 0.2508827414162188
 1.033116929593293 0.1190481903244867
 0.5149160735946361 -0.1387615984771156


# name: R0x
# type: matrix
# rows: 44
# columns: 13
 0.9114908527005072 0.2102877272553731 0 0 0 0 0 0 0 0 0 0 0
 1.698167702558208 1.538410433877773 0 0 0 0 0 0 0 0 0 0 0
 1.944217742259857 2.344464109335274 0 0 0 0 0 0 0 0 0 0 0
 -2.378258663389209 -2.269655544064903 0 0 0 0 0 0 0 0 0 0 0
 -5.780005748902392 -5.723309966136453 0 0 0 0 0 0 0 0 0 0 0
 -5.933849196520035 -6.244723345994816 2.904317962039659 0 0 0 0 0 0 0 0 0 0
 -2.968847061087136 -3.189749729205011 1.994885677063029 0.4054718133787802 0 0 0 0 0 0 0 0 0
 0.9468878146844903 0.6204744185897666 2.653229842940604 2.781174512843747 0 0 0 0 0 0 0 0 0
 2.674216629377197 3.315150332848975 -5.460114262549746 -3.606375730302627 0 0 0 0 0 0 0 0 0
 1.270002271991907 2.058915907843217 -6.609132571453482 -5.266082717075067 0.3490642973654906 0 0 0 0 0 0 0 0
 1.452702581219821 3.153089129081982 -14.17407962931003 -11.87578627978804 2.071830992071029 0 0 0 0 0 0 0 0
 -0.779846616521598 -0.8929843713866867 0.9808264852259181 0.5106555605599108 0.5640394668242479 1.495971973735452 0 0 0 0 0 0 0
 -1.466032140905232 -2.078835331373227 5.160258611863982 3.894311543999305 0.2216313897715006 2.153477419710884 0 0 0 0 0 0 0
 -4.432166935471791 -6.760911282234122 19.54685081577776 15.26496132884145 -0.3279084959259726 5.726609666846025 0.3053669545786053 0 0 0 0 0 0
 -1.400806542158959 -2.332817458285059 7.802401089038966 6.261987809676852 -0.5146768741131104 1.486787816190638 1.198415579768345 0 0 0 0 0 0
 -0.5316678309327749 -1.226213560772421 5.786101895766966 4.876102569360522 -0.9100300501462963 0.002501255792014268 2.370755368874809 0.3187464759501041 0 0 0 0 0
 1.377927298282628 1.98890434337303 -5.14027715530984 -3.916941757844536 -0.1351047843864167 -1.966777242134568 0.5405407171448057 0.889566639003836 0 0 0 0 0
 1.400848759194445 2.332831308595704 -7.802170635306477 -6.261787300255935 0.5146694336824603 -1.486724457781122 -1.198424587667402 0.455671171876597 0.8484747682622034 0 0 0 0
 0.3818597324605224 1.133665828487121 -6.252404200821141 -5.357435056604426 1.18451855662111 0.4161189072530779 -3.126104381837393 -0.5944561326696655 2.29346651575708 0.3067221810279644 0 0 0
 -2.606182739311103 -4.115423864462439 12.65343754532886 10.00204026623435 -0.4861030397127525 3.136923733227452 0.9658047828628984 -1.172267316888971 -0.6475695114763628 1.690308962979503 0 0 0
 -6.137306649889752 -9.969385928337612 32.101485121119 25.59239779151759 -1.727821501786079 6.928530546735353 3.837567424679189 -2.359289147672945 -2.676476571119517 3.690181008425528 0.3139668678277845 0 0
 -1.412071157856584 -2.623607807548466 10.11984071803787 8.307518568921235 -1.089966276591781 1.048851908442352 2.739361849860913 -0.06599491111817751 -1.983341993242052 0.5038729377765768 2.628360858343006 0 0
 1.95923202070294 2.129865222698864 -1.52275096753113 -0.449227019676495 -1.658175327492455 -3.951821482715686 4.699294761018115 2.274825775704193 -3.509801168732621 -2.279483228129038 8.057048673773277 1.133301750016719 0
 1.89717979767772 3.095660709164627 -10.03850042109049 -8.013140289190442 0.5633189629707199 -2.118722227228568 -1.264623755375435 0.7091871282483985 0.8850797295439291 -1.126168467310843 -0.2049366738182594 2.168721333782721 0
 1.72755911701525 3.277971274599285 -12.94604512032812 -10.66375131097221 1.476657718928803 -1.170427219840693 -3.735272461683519 -0.01784424429010584 2.70925809977048 -0.5451205243609688 -3.744144487916636 2.450811687979777 0.5042951851344319
 -0.03245951848641369 0.483900186992597 -4.277978986882188 -3.800427404959512 1.11743191943174 0.9238804059187319 -3.000084006083418 -0.7883152570828481 2.210830552342718 0.5811413884244609 -4.157209627365027 0.5194530968240093 1.456378038471235
 -0.8732320166120988 -0.3109447187624024 -4.612088450486404 -4.481564926000704 2.079241100408071 2.816928975410637 -5.687608185302662 -1.936901612485697 4.211230650792104 1.684163945890119 -8.538631278849845 0.1565867698644715 3.361947935441038
 -1.444346047638794 -0.9065696727688112 -4.377308418567606 -4.535662066952507 2.61562415197962 4.010727913449277 -7.199627181220443 -2.636570033120848 5.339073798170246 2.375122323831016 -11.08308900424944 -0.1476632450618307 4.506661692926524
 -1.051498540561643 -1.232756684687341 1.560570544059369 0.8988189975507639 0.7018103174925092 1.972968671609208 -2.017725624289795 -1.091442597495224 1.512150062753996 1.129775060462897 -3.629880872211175 -0.7014432036622094 1.741907796826168
 -0.9780384298378377 -1.951168139553992 8.119838112268699 6.736720404397041 -1.036157852789403 0.5050958213117475 2.651371540372731 0.1478692867830491 -1.929182033259253 0.2089827612244806 2.858558255538392 -1.486708891756014 -0.5415289165587653
 -0.7510863422106555 -3.094321257971322 19.46322771056192 16.8784104960796 -4.145980634374362 -2.250427494101592 11.01835832872376 2.420655960896198 -8.098360328127681 -1.509462465253882 14.56297849133003 -2.796644438756849 -4.703995202324396
 -0.7897365064484052 -4.538053742836006 31.1071803359159 27.16472407546131 -7.055889081341922 -4.489735313109573 18.81329745591041 4.401999666499158 -13.84118168520459 -2.931227843423791 25.26414926230232 -4.272487041054863 -8.397551077489117
 0.05616655192546949 -0.9831501868864105 8.59723305812005 7.63488677341819 -2.239953952650717 -1.839975306094168 6.006954935640925 1.574571969222665 -4.431798403539206 -1.158306404342012 8.31513760926121 -1.049826007709878 -2.912527829887392
 0.8937068504530536 1.440599908201991 -4.617938512923237 -3.672652030285166 0.2273297515799495 -1.028512523864919 -0.508496631452072 0.35925974454155 0.3390084523636503 -0.5499074399095143 0.02008386297638154 1.004747937359143 -0.4272190659898136
 1.793045937519492 6.227045193586844 -36.88510701585881 -31.81319162062285 7.461726556579119 3.453787336406409 -19.78769285363647 -4.102417419255215 14.51933580435944 2.389010050350213 -25.79721005186234 5.474779554858478 8.110809240352996
 0.5872613518583935 2.624909422442099 -16.9252466681551 -14.70730766619245 3.673156560666344 2.099554027534265 -9.773640717074102 -2.190059045084718 7.183842347737979 1.395447470084676 -12.98244498349368 2.39966821786456 4.230332743262187
 -1.504475872050794 -2.622550976024653 9.408379570107794 7.628748293571455 -0.7959746561969467 1.407620020937369 1.962675474984458 -0.3212372263684209 -1.387166705649975 0.7211445141728632 1.487992806033514 -1.898004549509615 0.1918480649963961
 -1.058831841228395 -2.464389047372574 11.74178300151651 9.900812340081393 -1.859403633493118 -0.03292304083463904 4.861590657183987 0.6685868718064238 -3.542824902804288 -0.1404392382727657 5.838907696375907 -1.976696450731096 -1.528494056367098
 -0.9834577065448844 -3.176739921020437 18.25347571760272 15.69907521811355 -3.591352849406479 -1.499352133962347 9.509591300567253 1.904790696065518 -6.973531000078721 -1.060227888642302 12.29910555143233 -2.755705220340412 -3.806731743310401
 -1.979194841599716 -8.904427748786485 57.51902976591323 49.98949550465788 -12.50102618497038 -7.171871024748064 33.26439035437201 7.464672589942932 -24.45175781698259 -4.763574235559208 44.2009440579228 -8.147652440263691 -14.41291030700311
 0.1310799394103683 -0.3481887480555232 3.968366550822663 3.571194243705172 -1.140715767235311 -1.074921881436657 3.076285328560132 0.8611695931875984 -2.26846580878822 -0.6654329284839053 4.341711542000331 -0.4336018370137169 -1.564704014962612
 0.3170153918153096 0.2928891823366024 0.1852950449627049 0.3088594075899578 -0.3765690950334782 -0.7241905827816889 1.051382568802073 0.4424042837063906 -0.781590136951726 -0.4223675498713203 1.704005230889278 0.1290675223271287 -0.7357284476319106
 0.3716229757340828 0.481168052393746 -0.9257593131760289 -0.6492592353590271 -0.1521460332193137 -0.6211839287169615 0.4566866893952215 0.3194166474918312 -0.3449080143311483 -0.3509814161961182 0.9293344143555735 0.2943184944323012 -0.4922657175601646
 0.4784111398419126 0.8493578427277211 -3.098487835758409 -2.522913470459263 0.2867257321061757 -0.4197486941014878 -0.7062741414447884 0.07890749222779181 0.5090481365713289 -0.2113818658979418 -0.585577404643703 0.6174759509935526 -0.0161608231976399


# name: R0y
# type: matrix
# rows: 44
# columns: 13
 0.05336187016456905 0 0 0 0 0 0 0 0 0 0 0 0
 1.865161748501165 0 0 0 0 0 0 0 0 0 0 0 0
 4.149824675620597 0.393842604943292 0 0 0 0 0 0 0 0 0 0 0
 12.54077158917521 2.291561579675987 0.3115593001323628 0 0 0 0 0 0 0 0 0 0
 5.910512732829421 1.292894013305837 0.9097322554837425 0 0 0 0 0 0 0 0 0 0
 -7.56641751308644 0.343693595657002 5.998736466807229 3.206840226513287 0 0 0 0 0 0 0 0 0
 -13.0258656829008 0.3510165533624022 9.464550381958132 5.188760027294837 0 0 0 0 0 0 0 0 0
 -4.74719476753057 -0.222138207837876 2.194732123811532 1.408202954988338 1.203796425230931 0.1592317590322285 0 0 0 0 0 0 0
 -4.441298150110857 -2.330221334360922 -5.55296413626977 -1.609753883537073 9.127177545738586 3.862544929987815 0 0 0 0 0 0 0
 -7.774166867358795 -5.286292000290032 -14.04719107509383 -4.483018315729066 20.52813219043163 8.873718688754687 0 0 0 0 0 0 0
 -2.16922300745677 -2.086851424368214 -6.112220765629433 -2.094726016154156 8.034298589134787 3.5465210594413 1.289149113636239 0 0 0 0 0 0
 1.994751833710503 -1.208831067518894 -5.588933142304155 -2.387710027268971 4.402788529679119 2.21146357630912 5.627677018333639 0.1153853326320501 0 0 0 0 0
 2.501847970826503 -0.9151462026558148 -4.855902026376116 -2.165811212155923 3.25651904067354 1.72210882856316 5.749237751015865 0.4639932782411582 0 0 0 0 0
 0.6398618764613777 1.396833899351321 4.602862069285796 1.695418554976565 -5.315077521540798 -2.413119929496071 -2.081889101486979 0.9851442702413573 0 0 0 0 0
 -0.20894528679313 4.664575327397256 16.8485781436446 6.508897123615989 -17.56789299518186 -8.171688952588347 -10.47370016164285 2.398901190607564 0.4713289688018946 0 0 0 0
 -0.8131662372141812 2.868324683513844 10.79183902021217 4.249739992613403 -10.74974436711998 -5.057954266716816 -7.468667756903725 1.214944104839239 1.008076922416392 0 0 0 0
 -1.881981737599829 3.825186229284619 14.89443275774825 5.955509890692302 -14.27406710625093 -6.783771425508094 -11.15776758495881 1.317227313852339 2.180895451761217 0 0 0 0
 -2.50044875391292 0.9133006908488135 4.848438648650464 2.162821411489487 -3.249060464724421 -1.71866569549361 -5.744587382559126 -0.4650638293325992 2.672689359497106 0.4336647305827346 0 0 0
 -0.6388404167930758 -1.397389420598937 -4.605495567484589 -1.696525671727538 5.317352402789019 2.41420455819829 2.083957021608558 -0.9853454401487587 0.5949466298441971 1.110375972216651 0 0 0
 0.7283915449157139 -7.128078076029063 -26.00459205372912 -10.09416556972991 26.81469483304734 12.50724048152586 16.61847356076035 -3.510858533675636 -1.148359866143729 4.079881306246191 0.3846167541941714 0 0
 0.9687421015597331 -4.111071113496276 -15.34360939523441 -6.019936961639791 15.42253789541513 7.239913563672675 10.40909046426701 -1.816147847893386 -1.238380530684298 2.134855340838605 1.275306635109188 0 0
 3.641844903188471 -5.637892726065138 -22.49947055324004 -9.091345408053623 20.97067460505223 10.04031585779769 17.75078114175382 -1.610857986913006 -4.126710647967186 2.008009664528358 6.189811180385112 1.732582499222029 0
 2.169714860203319 -0.5628435345108508 -3.38400431014784 -1.560066380049404 1.953111954904307 1.089405550406514 4.48633911269309 0.5262880950994032 -2.308415463039279 -0.5178338308305783 4.086015072331901 2.769252553963366 0
 4.264384017705448 3.275824868670119 9.053486488934629 2.97752350394888 -12.68082433549281 -5.526242942323748 -0.725531100810345 3.363210334962229 -4.301557694302498 -3.704154142674621 8.654761543099255 8.164878738521491 0
 5.628660787635785 5.426787264504258 15.90267802468316 5.451285144482513 -20.89563986280435 -9.224077528079196 -3.359579584126696 5.025350197597541 -5.618490031270508 -5.565366142711396 11.58073469373002 11.46220062599278 0.3541865269188548
 9.606643276501247 9.829303613070481 29.17444798465926 10.08619361044248 -37.80166057398918 -16.73553593154369 -6.969041252744715 8.878429314317488 -9.558908872347164 -9.846372205877715 19.84623241992005 19.91543973199677 1.465268898844204
 -0.05686265621705785 0.1524521252817022 0.5821427462853814 0.2308256015510963 -0.5701531175408833 -0.2694653550250198 -0.4182417339933029 0.05912758042246371 0.0685582260645137 -0.07062243263642692 -0.08878343841814722 0.0120584211018403 0.3123149068067818
 -9.169664883452548 -8.949514361918702 -26.29681468206581 -9.030599203936291 34.45134097756907 15.21726214073022 5.708104382426773 -8.245176703080148 9.148745143810206 9.133706697682598 -18.88462697997551 -18.74267173580218 -0.7391695811155548
 -36.23378114576245 -35.7657832149139 -105.3517889514539 -36.23862850772348 137.6489168092025 60.83399009972343 23.43187207806122 -32.79391723310052 36.12859975733066 36.33777802432808 -74.67770010368129 -74.30976338947545 -3.532657577942508
 -54.16987534838696 -53.58263827001891 -157.9048854833336 -54.33220667172248 206.2101267961283 91.14410684018182 35.2767069127739 -49.08666439987351 54.00575064930567 54.39398806395572 -111.6583032262783 -111.1625703780788 -5.453614708623514
 -73.48872194729435 -72.78054538814997 -214.5364457685724 -73.83103240843019 280.084603897542 123.8039001300305 48.05168829771633 -66.63922085003536 73.26006535491223 73.84655414667196 -151.4898222210276 -150.8603898639428 -7.535180953289467
 -31.93667305095829 -31.72724969035923 -93.58656873951618 -32.22129726598805 122.0836753142754 53.97326011103475 21.10356849856476 -29.00978322646574 31.82524156024873 32.14984123089698 -65.83645371982081 -65.61382907784318 -3.436002346219029
 -33.592505083388 -33.49663181807901 -98.88642113492166 -34.06375170939208 128.8738492652393 56.98724592494847 22.47593725450085 -30.57733387046895 33.46128703723741 33.8899750783662 -69.25542625010199 -69.084793071126 -3.815505096800237
 2.308903135536914 2.163489087851972 6.297796237104887 2.149433546699333 -8.343152122022023 -3.676032928123678 -1.23158905505628 2.031731019022392 -2.31765486336837 -2.24822546688819 4.758638532091249 4.67461118073673 0.03312079956174676
 32.89158694556244 32.5737199613119 96.01870444158577 33.04351340276394 -125.3514593066158 -55.40888475332986 -21.50401177865665 29.82562315488165 -32.78932491583163 -33.05095797761376 67.80397131301196 67.52158427530891 3.370436510961328
 76.71911399358125 76.17730140523925 224.6799193632076 77.34939790123362 -293.118131747121 -129.5861604239 -50.6096939011446 69.66779899966208 -76.45346268203627 -77.20682614858588 158.1512871891682 157.5974198498821 8.193604453112197
 23.15167222554782 23.10312816958268 68.20848313967676 23.50014136964883 -88.90739166047149 -39.31144113501563 -15.51728564617037 21.08729320216713 -23.07312207964441 -23.37335458355148 47.75127792614659 47.63570383691142 2.636181485907548
 11.43399254327397 11.60681505860676 34.38183439295437 11.87696109361958 -44.68503176010123 -19.7677922909488 -8.080551977152831 10.5238396726286 -11.39974662855495 -11.67169154842183 23.63021686605171 23.6603948231221 1.578747899117716
 -4.148171796136914 -3.816070053635173 -11.0782593647474 -3.765472788475794 14.65466213919467 6.463626353088682 2.094820672806009 -3.598604356840382 4.126825028027252 3.97725946875579 -8.478703322301099 -8.314482395671519 -0.01706436516308417
 -42.4739304661247 -42.1177568797108 -124.1909162721537 -42.74556473344708 162.0559208925041 71.64157598218053 27.90155575941344 -38.53829470606213 42.32400859416032 42.70673114450714 -87.5409264996854 -87.21025377981198 -4.459959503709328
 -38.50456246192257 -38.26189804974248 -112.8670359759446 -38.86130588879099 147.2303117935247 65.09098436982184 25.46692840243309 -34.98043817612518 38.36859403860105 38.76748537014189 -79.37413892776465 -79.11134296149517 -4.160443271311093
 -13.61785900674311 -13.55020600572342 -39.98077430806469 -13.76907897162024 52.1454980214146 23.05396389306659 9.046736939275396 -12.38118729194104 13.56950719316515 13.72267717152331 -28.07409989594097 -27.98983582192333 -1.498942868290639
 -6.3088561790798 -6.292602468502341 -18.57472936572094 -6.399715736338115 24.21993632619753 10.70806592853735 4.224273166556745 -5.743988881430223 6.286236582286429 6.367240390928433 -13.00773600334585 -12.97590515366623 -0.7172839391947102
 7.984304906128529 7.900044448729998 23.28598074375056 8.011483479324923 -30.390050988894 -13.43502342431994 -5.206322655648449 7.235421343568834 -7.956603723431785 -8.01672486890188 16.45537560884013 16.3846703753699 0.8112935221484279


# name: B1
# type: matrix
# rows: 44
# columns: 2
 -29.6786501319168 -0.04768521076638187
 -95.44004593844743 0.02982778318651791
 -563.4433245022399 0.1161555917163467
 -167.2160472505479 0.367804915116137
 -179.8982048277927 0.1771141915993111
 219.1227489469418 -0.1920947700045457
 181.0376190610434 -0.3347280535918604
 541.5448454162192 -0.1288287103303367
 -33.73934359335941 -0.1611287552069215
 -8.047214985011397 -0.3050040907112016
 2.59581629744439 -0.09710647004941905
 1.211260911395274 0.02806371232178551
 0.9737554604397891 0.04698456565978883
 1.394132372756673 0.04423260786511413
 -0.198392183008868 0.08670195189825586
 -1.186457308020598 0.03543618970160328
 -0.7987278637416807 0.02645920653169683
 0.2005869783439032 -0.04741572997873088
 1.677113489454452 -0.04454958985600206
 0.3519696294352285 -0.1225947472366671
 -0.07665392084795553 -0.05622877033571989
 -1.086797706043338 -0.01614683265196208
 -3.390040088517358 0.04623104445021393
 0.0754537145040961 0.1782339365572292
 1.560537666548944 0.2572394098804432
 1.740481680349969 0.4502796990063602
 3.580455547686624 0.002040066010017203
 4.648858075208098 -0.4201021929749365
 1.516996928496617 -1.668738253182616
 -1.211242796422408 -2.497660592822673
 -6.133064313330335 -3.391031750420191
 -10.75067112377249 -1.482854685541852
 -3.879459622855982 -1.573712510917692
 -0.9821876194872097 0.09018961353021997
 210.2772381208546 1.512817864264977
 118.7599442214601 3.560811748676697
 72.23589886442764 1.063671808646266
 88.03573836539789 0.5030217381227662
 174.7722534291006 -0.2272731277706403
 615.0095144189175 -1.984543389221987
 57.78988372323036 -1.79385311383463
 20.51850136178848 -0.6367387836938596
 9.572228804584885 -0.2969046258207551
 -11.83381530728035 0.3676599495755404


# name: R1x
# type: matrix
# rows: 44
# columns: 13
 0.000908409857326653 0.0002095769185681551 0 0 0 0 0 0 0 0 0 0 0
 0.0008561071070123383 0.001232476537778471 0 0 0 0 0 0 0 0 0 0 0
 4.978827383594897e-05 0.00135162127263655 0 0 0 0 0 0 0 0 0 0 0
 -0.006433319530311454 -0.008184130583430704 0 0 0 0 0 0 0 0 0 0 0
 -0.01448901374064882 -0.01863308529446961 0 0 0 0 0 0 0 0 0 0 0
 0.001427876450711629 -0.002753405227548633 0.002641755587585948 0 0 0 0 0 0 0 0 0 0
 0.006775667516085271 0.004859496095355187 0.000308971271403724 0.0004041012508806396 0 0 0 0 0 0 0 0 0
 0.03038116562913418 0.03174932459080404 -0.003460850610039312 0.003282873415672238 0 0 0 0 0 0 0 0 0
 -0.04660646400633972 -0.04462235318564023 -0.005464069181192244 -0.01399076459717152 0 0 0 0 0 0 0 0 0
 -0.06594440963472814 -0.06611478313188801 0.003274585466957802 -0.01111865086846375 0.0003632151652174787 0 0 0 0 0 0 0 0
 -0.146357137788574 -0.1476314636295948 0.007101872459362113 -0.02509312948310871 0.002361491092517376 0 0 0 0 0 0 0 0
 0.005346608290447419 0.00205071133061685 0.02371310983697716 0.02140395953209073 -0.002938323886478633 0.001490915332088338 0 0 0 0 0 0 0
 0.0464857094274671 0.04216525069089938 0.03177770835650939 0.03703293983974687 -0.004713555469565367 0.00240488793310778 0 0 0 0 0 0 0
 0.1830874242472422 0.1720122968698421 0.0829133164748761 0.1096080286864431 -0.01295366025323069 0.008169585786179212 0.0002786841163182618 0 0 0 0 0 0
 0.08231648065907726 0.08341001844354468 -0.01089526726326007 0.008894389828651761 -0.003093139963595948 -0.006476765553300678 0.0009191379000197397 0 0 0 0 0 0
 0.07279023621508895 0.08061883156068173 -0.06383107446290559 -0.03758969141814106 0.0004061130596377804 -0.01696280019002389 0.002084588142228228 0.0002716726438335981 0 0 0 0 0
 -0.04247572209285888 -0.03552076003612603 -0.05434915255248374 -0.05509828367387559 0.00598354586429245 -0.007249975625459149 -0.003254718185428218 0.000580522136842565 0 0 0 0 0
 -0.08635870625656361 -0.08927966941674725 0.02626312887343829 0.002813422983528824 0.003575592785143633 0.01252605829986586 -0.002792649452648899 -0.002303501630304461 0.0005390552532069659 0 0 0 0
 -0.09742022112112503 -0.1167517845834747 0.1589721830588591 0.1115740027439598 -0.00326681347501423 0.04179036940538078 -9.51031225815413e-06 -0.007974189246159225 0.001896487729116547 0.0002798593702756369 0 0 0
 0.1260949079317162 0.1209406384495555 0.03816854734594699 0.06054769180854436 -0.01177936850191441 -0.006593045472725656 0.01397174522177658 0.002336492354814146 -0.006395205637426904 0.001184551113038168 0 0 0
 0.3368873234347749 0.3344551209892614 0.01052522985033733 0.08488701664606779 -0.0253205979837845 -0.03507296646904301 0.03215968576909578 0.008780713433828247 -0.01576337208461354 0.003548074233146181 0.0002963309767878286 0 0
 0.1386889674890566 0.1587332137429818 -0.1678491595702365 -0.109770871665491 0.001159542499299615 -0.04768370037968839 -0.002533599653895546 0.01152672197471755 0.001828485821052883 -0.007073991921741518 0.002037397122876872 0 0
 0.08623472062550475 0.151412885520239 -0.5354566509715863 -0.4304469949996338 0.0291567538783708 -0.1140541243781206 -0.03890760261656201 0.02745260218718659 0.02022908972746862 -0.02572982590593442 0.009095851875402516 0.00110063421093276 0
 -0.1105562429842468 -0.1114451930886564 0.01052342320518029 -0.01672557601398594 0.009931763770124613 0.01967121122039073 -0.01650649765193424 -0.007007383737907213 0.009893795415026219 0.003271643691248549 -0.01292486757565325 0.0002950776932166832 0
 -0.1870153935785486 -0.2163786329967259 0.2456064000941733 0.1633374466558681 0.0008017950738365975 0.07581304335120054 -0.00534646540313588 -0.02130604621786875 0.004499798909427533 0.01554671099443683 -0.0211500295259297 -0.0002625857499380935 0.0004711745285941316
 -0.1008708387656893 -0.1358783143591694 0.2894596570334222 0.2203117861402615 -0.01125091832385983 0.0688452996717509 0.01521773407245863 -0.01746775566375558 -0.008053355824947594 0.01537695908625691 -0.007372179491602182 -0.003306614299065536 0.001159699014753102
 -0.1630395181906847 -0.2354313916088683 0.5972643498983592 0.4649074615514035 -0.02710251870839686 0.1358228109174289 0.03725006948057885 -0.03399651353532107 -0.01990830951319023 0.03126800675371522 -0.01222339468435685 -0.007440436885739393 0.003900156709775171
 -0.1944347806847291 -0.2886394233874551 0.7767221620327138 0.6086805561893831 -0.03700276023564264 0.1736930298675583 0.05144829008284546 -0.04311032790436009 -0.02772382112034233 0.0402025442651377 -0.01352342608000257 -0.009896820069991152 0.005155217386366928
 -0.02968585974323301 -0.06158886666984476 0.2620351785223261 0.2143339869919176 -0.01879742009873597 0.04681362980257431 0.03171083592813684 -0.008857559382539071 -0.01934074698034127 0.009434078691748837 0.01398976880482117 -0.003562661710656001 -0.003824146544996188
 0.129169013587447 0.1509796294610071 -0.1821609347793336 -0.1218915519487602 -0.005761540287994249 -0.0676158077431207 0.02060612101142967 0.02300414556253738 -0.01619172347452102 -0.01868587298115973 0.04507969206969253 0.001613155001426003 -0.01355666418314216
 0.4104138203775574 0.5291778861593293 -0.9837774534720154 -0.7299369472466815 0.01837456426341433 -0.2730668316981566 -0.0005586754926234505 0.08007185904154701 -0.009795262150253947 -0.06919519899053594 0.1001132408123269 0.01096925604555343 -0.03098414773340341
 0.6818782931352778 0.8891095868393037 -1.715113540055722 -1.281130657477728 0.03828168702549384 -0.4644613067882633 -0.01542950331131365 0.1339224396606422 -0.006952851697089812 -0.1165072945229255 0.1555675568177399 0.01955863115897216 -0.04826460893697693
 0.2062878663526484 0.2790363803002451 -0.5999130672880568 -0.4574932684023558 0.02376389482586472 -0.1423929948445997 -0.03327163557693424 0.03643949180132466 0.01809009676993245 -0.03315909972816922 0.01403062036835756 0.01123576655351677 -0.003943827576800452
 -0.05060657000623792 -0.03866037450853455 -0.09270158148283159 -0.09450138082016579 0.02928725629998219 0.02733374562146373 -0.07351136164801275 -0.01987560203931338 0.05302460582455915 0.01341373423716519 -0.09639643049563063 0.01238661445333022 0.0307731285561772
 -0.7543622078032799 -0.9540155156094672 1.659373584075816 1.212053764635371 -0.00719694203644039 0.5069025043769364 -0.06451072963732329 -0.1595490199439267 0.065072657008173 0.134987839411759 -0.2656380391265536 -0.008270281700183624 0.08421564626361189
 -0.3622972535607746 -0.4702049514962972 0.8944102473841156 0.6665646277090076 -0.01982253624047026 0.2420112877385803 0.009143669867412996 -0.06979720062162675 0.002518426105496019 0.06106876915211545 -0.07891851514214743 -0.01269148368993633 0.02492889731862569
 0.1201449116053261 0.09055515731318842 0.2357731859132635 0.2411327290051659 -0.08738368101013805 -0.09820145892441801 0.2309515030952198 0.06588501624157672 -0.1692495436929278 -0.04492008310096196 0.3156274986271264 -0.04735450135176933 -0.101168751836159
 0.2076868726203411 0.2337412336381242 -0.2212800092779101 -0.1289876701799582 -0.04051707404066285 -0.1494970126881796 0.1239504897401762 0.06407124439782486 -0.09445123594104743 -0.04935279581767915 0.2057932572713721 -0.01989087671155865 -0.06646914084319278
 0.3692714799596377 0.4602159164629382 -0.7567805777070973 -0.5446982025465115 -0.008251699048412497 -0.2542821561658997 0.06166256291481709 0.08519681174392701 -0.05372944640255817 -0.07137129266335762 0.1700169295501883 4.735140222589251e-05 -0.05556303653442995
 1.24129117224542 1.610656521950556 -3.061865058672609 -2.28037448848572 0.06233028270099439 -0.8402197949207917 -0.01604861402128677 0.2463981746459076 -0.02010050668531704 -0.2171345004603431 0.2968070544974495 0.04925282395384301 -0.0987962653308827
 0.1017887627878777 0.1317218152589379 -0.2477276523197576 -0.1822524006595216 -0.003032728863000322 -0.08484161762498954 0.02452124260426558 0.02910210136104618 -0.02157675383020452 -0.024212577454652 0.06470765817440061 -0.003632288824670038 -0.02146309760855591
 0.0235745688888942 0.03057536730915 -0.05752495196538843 -0.0405965811368012 -0.00784878896987673 -0.03467121079524105 0.02874968348798013 0.0149202723906372 -0.0228673821886165 -0.01153656162008077 0.05150768524488725 -0.007802188916932185 -0.01707713230588537
 0.0006037577724877785 0.000869557722920522 -0.001664115385565434 0.001006469556669276 -0.009263222866458309 -0.0199366098048247 0.02999153885965966 0.01075519571685213 -0.0232464282261764 -0.007813728833387268 0.04763097093278579 -0.009026851380597778 -0.01578901341725403
 -0.04431693952103632 -0.05722180324586934 0.1075748539264905 0.08236354646890964 -0.0120292269307235 0.008877721021406326 0.03242005603143516 0.00261015688860422 -0.02398767380979061 -0.0005335224947284889 0.04004984072260664 -0.0114217468650426 -0.01327002536803434


# name: R1y
# type: matrix
# rows: 44
# columns: 13
 5.318149789785426e-05 0 0 0 0 0 0 0 0 0 0 0 0
 0.002039160152593089 0 0 0 0 0 0 0 0 0 0 0 0
 0.005031982028314452 0.0004245452540936889 0 0 0 0 0 0 0 0 0 0 0
 0.02236110818682313 0.002937816110049063 0.000287114431143487 0 0 0 0 0 0 0 0 0 0
 0.0004526856548974223 -0.0003758449241351158 0.0007146448306244446 0 0 0 0 0 0 0 0 0 0
 -0.07928702656237618 -0.0125309197718334 0.007059650624229086 0.003445189090548251 0 0 0 0 0 0 0 0 0
 -0.130070805832581 -0.01985501266804168 0.01365710701519163 0.006877120826423777 0 0 0 0 0 0 0 0 0
 -0.01683443691466557 -0.005268341406483523 -0.00811261587800205 -0.004493850790889375 0.001294807711629264 0.0001586935283978408 0 0 0 0 0 0 0
 0.1507641583330965 0.005784108762360685 -0.07945484310659801 -0.0415375340624986 0.01567697286405512 0.004960883046152276 0 0 0 0 0 0 0
 0.3555521252254978 0.01480912617788022 -0.1830806519237829 -0.09477745906807566 0.04125143369162032 0.0137436614613442 0 0 0 0 0 0 0
 0.1539835380382875 0.01238956428039728 -0.05753119098547188 -0.03253846441052488 -0.004456434752976079 -0.003518611249249126 0.001284772081235008 0 0 0 0 0 0
 0.1355731562454165 0.02754125304079746 0.009981297842941217 -0.004711047559236903 -0.06485493625625782 -0.02873838558456132 0.008144321482350669 0.000114995310433047 0 0 0 0 0
 0.1163844464873023 0.02716513870562354 0.02138702172105322 0.001030989956149142 -0.06845794574874553 -0.03010225580405379 0.007614594907111361 0.0004084862229763453 0 0 0 0 0
 -0.1199290310904133 -0.01135876266635072 0.03826363111890707 0.02292902536040042 0.01123252925374629 0.005207852189293316 -0.01478741302260689 0.0002810028204514037 0 0 0 0 0
 -0.4300696081910692 -0.05306342021708765 0.09251088580766265 0.06436675127363412 0.08383231046716588 0.0376225804429513 -0.04800691793762901 0.001158070846646986 0.0004220873515640156 0 0 0 0
 -0.2725211924453805 -0.04249024198929652 0.0267108008774759 0.02832596762107276 0.0857260158083335 0.03863342126283431 -0.01698355746481806 -0.002127692587228003 0.0006025080981439945 0 0 0 0
 -0.3733215936452086 -0.06623512080934102 0.00765411318848308 0.02747934018625653 0.1468856784961154 0.06618389617462661 -0.01275739502268181 -0.005232913815075957 0.001634661421189954 0 0 0 0
 -0.1096667529776245 -0.05016701005161073 -0.1081160463991591 -0.035079690342811 0.1554901279279632 0.07087061854291399 0.04991030374648986 -0.01116408803892111 -0.002136492069028328 0.0003895429339531575 0 0 0
 0.1264370914149439 0.001209925637427167 -0.0787630682888727 -0.03922979953230832 0.02690657448107014 0.01295715529709529 0.04549736546523153 -0.00370151391297624 -0.005658542759727325 0.000581303924390042 0 0 0
 0.6805757371715453 0.0720375919929328 -0.1886183625629343 -0.118873932310132 -0.09305516948995773 -0.03956602430189093 0.1246066542203437 -0.001726723621941595 -0.01945973592156025 0.003466958319024549 0.0003598168672691582 0 0
 0.3960356993223457 0.05789898218250045 -0.05244295603324645 -0.04685822714527976 -0.112970680468484 -0.05023434141048888 0.0399026064024568 0.005022814816250998 -0.008807197261957 -0.002177782697539765 0.001012214106167253 0 0
 0.5607770580069134 0.1395246393354261 0.132216153562112 0.01408867517506707 -0.371625035986817 -0.1688385623859237 -0.05753756365932006 0.02826447143004773 -0.004441746560690518 -0.01589979809734987 0.007256210962655274 0.001726726743244811 0
 0.06471377713323267 0.06750354916155044 0.1995556499949713 0.07352415623706743 -0.2311432287810631 -0.1067994927813074 -0.1147098592665321 0.02142703208301588 0.01048334129080342 -0.0140772641809167 -0.002133067436679958 0.0006900079719023289 0
 -0.2914801165631973 0.107376579112858 0.5763755831713393 0.2441946354173203 -0.4667170611515097 -0.2180320835425613 -0.3445571642632762 0.05014564378883835 0.03756715739897221 -0.03569924252111001 -0.007896541093799669 0.0051580598750256 0
 -0.4897359224925335 0.135760546887095 0.808319788021139 0.3478233111791287 -0.6207008340651647 -0.2905128072781196 -0.4850336369160462 0.06857761661385275 0.05344991736886939 -0.04954649990311299 -0.01051378353438004 0.008596007780033332 0.0003703991839211218
 -0.8880826502584398 0.2304056007646 1.409265735080133 0.6085528499613719 -1.068623179001655 -0.5002482370261205 -0.8443917768343141 0.1199433337515838 0.09129860545483837 -0.08764793104507618 -0.01404811900947678 0.01943188126551831 0.001406455124464578
 -0.0261692004784851 -0.01575594605281166 -0.03962539993255176 -0.01285907410922044 0.05664239215499367 0.02515410848306798 0.009635316161317187 -0.01208106023619927 0.0125929258345843 0.01311072278813729 -0.02592400944426616 -0.02592660491666546 -0.00169251538075843
 0.7824384822262846 -0.2502482503033239 -1.411710229951353 -0.6006811023809231 1.126311262868946 0.5243809009574978 0.8160423002719979 -0.138538766364622 -0.05941400008499009 0.1102909729967596 -0.04158254078631884 -0.07312659139315159 -0.004856685651273396
 3.145538500671861 -0.9682014387533755 -5.539167340165434 -2.363044938985858 4.380939676750216 2.041391964143607 3.220519190261012 -0.5319556510653953 -0.2530714862226802 0.4186408167544542 -0.1287624116573198 -0.2536799316505807 -0.01646670976329467
 4.727905015141097 -1.430248833040736 -8.235566782832905 -3.517784560601974 6.485799001257504 3.023720085109787 4.805236537572981 -0.7805706987318288 -0.3946249081441806 0.6096244896789216 -0.1592738118624197 -0.3461783715095095 -0.02275623693247475
 6.443419345996602 -1.916149763376012 -11.10470447560604 -4.749356462945954 8.707589124533683 4.061709576419503 6.503680689438049 -1.037760202286549 -0.5584825274968921 0.8036477713246484 -0.1684118657517786 -0.4221390697062191 -0.02831718883682832
 2.922993482952489 -0.704702197651919 -4.444525453609629 -1.931809306148004 3.291295230556997 1.546989558166793 2.735075336235941 -0.3358495158730506 -0.3666589565084344 0.2222484828280216 0.184864396754989 0.07391040138598726 0.0007096158533630437
 3.207320449289611 -0.6043033989133519 -4.268037773083407 -1.89104451595388 2.935052662770261 1.394008469609716 2.779607609059852 -0.2302556867856644 -0.5181397198332007 0.09809577253435009 0.4701518195303009 0.3526843818579692 0.01461615667512506
 -0.0318687701059881 0.2398938278332166 0.8853940424674018 0.3353191851221329 -0.965724176138643 -0.434015779421066 -0.3334002781342609 0.1942315823494161 -0.1561836940137629 -0.2035193208490407 0.3671699529374441 0.3743121802569709 0.01948696595047566
 -2.87565611284073 0.8675121132220553 5.000591062866675 2.136319597584603 -3.935276993672076 -1.834825944503592 -2.918870261272129 0.4732375757908223 0.2408890858238166 -0.3693533274513143 0.09445444244977352 0.2082086264334748 0.01435168997728686
 -7.004366697201689 1.709523535102491 10.72584486148375 4.657474588006821 -7.969122894100167 -3.744179696385629 -6.582758743844479 0.8211976574831539 0.865805124631251 -0.5497883042556424 -0.412771197422046 -0.1458352778396659 0.001487536679647405
 -2.016851349301639 0.6370471411141345 3.610012685344287 1.536767002064181 -2.877052028221243 -1.338982163942767 -2.080293653433399 0.3581140045500923 0.1440747829974107 -0.2875401033009588 0.1212056613070729 0.201639989450328 0.01372751816097795
 -0.7999315376709681 0.5562243872823434 2.525339322684459 1.019788292951189 -2.361532414969012 -1.077811647842843 -1.213355349590303 0.3965779847096638 -0.1625167198131141 -0.3843016703293358 0.5495746193370046 0.5890097404407371 0.03320206100482581
 0.6802670196025016 0.2789477454113691 0.5612804304944454 0.1490719593355538 -1.015014765595133 -0.437812266144765 0.07019154254277904 0.293363033387505 -0.4060793496637429 -0.3427448935602215 0.7752296271576808 0.7603158039324738 0.04042892313829492
 3.960632905140216 -0.8479271053970621 -5.637155441213039 -2.473089685869532 4.029137538828365 1.903413146459499 3.570269425496647 -0.3650103189912173 -0.5751741433485549 0.2055500307624882 0.4290167893325929 0.2808063690744405 0.009125906922677451
 3.551307519057133 -0.8214663916571752 -5.274638284481469 -2.300119553533669 3.859500626830652 1.817113942259283 3.278871391106609 -0.3790963116499739 -0.4705316578754122 0.2394958347610014 0.281872696805209 0.1474342838015303 0.002196139017242693
 1.256916132437599 -0.2913330486405048 -1.868820433443695 -0.8148546977901923 1.368844387987032 0.644326613067939 1.160937204582901 -0.1349185057602558 -0.1656547224107587 0.08563750267393999 0.09792392014173146 0.05033035050938039 0.0005857970177556293
 0.5830738470271548 -0.1356376143246605 -0.8685621088102273 -0.3786456574885104 0.6373608660638297 0.2998894351690868 0.5389188249294765 -0.06320566211595136 -0.07611508581646653 0.04045068288022247 0.04389980516780589 0.02181179142049139 0.0001128539359540603
 -0.7346621777753999 0.1688334572263397 1.087498614918157 0.4743853546569845 -0.7930957990306773 -0.3736766016107342 -0.6774726730595111 0.07703278767726207 0.09898464796773343 -0.04791465360475122 -0.06174735300314538 -0.03395783524191387 -0.0008120125351138707


# name: B2
# type: matrix
# rows: 44
# columns: 2
 -1.464932589320687 -0.004316978088845565
 -1.021094970726605 -0.0410197714596905
 2.853420124621596 -0.08804832118712395
 3.490723029474989 -0.2651345513700568
 6.573861739761929 -0.1244849151126355
 3.35555111168893 0.16341041067186
 1.078506025106698 0.2808970674712944
 -5.191991501554212 0.1012937905933428
 -1.389170635307285 0.08868232288444032
 -0.1261076841655612 0.1518575887209606
 0.7440724639562422 0.0404025032197145
 0.5591471333714595 -0.0471207351931891
 0.5715224788311762 -0.05717646487034152
 1.157038241930268 -0.009340916638496372
 0.1304863758328421 0.01960594622119457
 -0.3593914572487912 0.0269403689328115
 -0.4958779993416495 0.05325269448157083
 -0.1307411952943631 0.05728235282643825
 0.5623817328842413 0.009309314393048841
 0.5144793987144758 -0.03904612922799622
 0.8775497894580813 -0.03449170547341006
 -0.196250300141145 -0.09774136187491611
 -1.550474473542167 -0.04914331464243241
 -0.2556513786187568 -0.08243032124686596
 0.3207590100604374 -0.1052680314918646
 0.6523558590892307 -0.1779248333290542
 1.462021687698644 0.002124833729926858
 1.944917652159582 0.172057784158382
 0.7262309359278238 0.6780863294143928
 -0.293351939930348 1.012980189236393
 -2.147060247962364 1.373499811273831
 -3.797769415190677 0.5855417842552554
 -1.281634553733718 0.5904904565727155
 -0.09220889977124358 -0.07078085470215527
 0.8465894876350752 -0.6250673399370269
 0.2694270348092135 -1.411811918568912
 -1.188137439914534 -0.4595137996522313
 -2.225423597125067 -0.2881374933546115
 -4.681950348911444 -0.01824938460651789
 -16.8154508101449 0.7598997450995124
 -1.666521657731393 0.7116546152458832
 -0.6664125579555333 0.2519838528967581
 -0.3726894358313669 0.1169826500313503
 0.2017024474336683 -0.1470197022387811


# name: R2x
# type: matrix
# rows: 44
# columns: 13
 -6.603061657450837e-06 -1.52337551093118e-06 0 0 0 0 0 0 0 0 0 0 0
 -6.232894451230209e-06 -8.962242756815897e-06 0 0 0 0 0 0 0 0 0 0 0
 -3.809107329555417e-07 -9.835016908432692e-06 0 0 0 0 0 0 0 0 0 0 0
 4.656865489627293e-05 5.925234667047974e-05 0 0 0 0 0 0 0 0 0 0 0
 0.0001048143503012966 0.0001348561116767399 0 0 0 0 0 0 0 0 0 0 0
 -1.052743679874624e-05 1.994716687381271e-05 -1.920543767397476e-05 0 0 0 0 0 0 0 0 0 0
 -4.926384797698802e-05 -3.523826732321211e-05 -2.265692653713458e-06 -2.937336539499125e-06 0 0 0 0 0 0 0 0 0
 -0.0002199811620053893 -0.0002295815260713319 2.448479394923098e-05 -2.419527951991185e-05 0 0 0 0 0 0 0 0 0
 0.0003369007146547531 0.0003219406368080158 4.034659602414337e-05 0.0001018282323550501 0 0 0 0 0 0 0 0 0
 0.000477560498898022 0.0004780471019687482 -2.264173994248608e-05 8.13684228209155e-05 -2.639956312611158e-06 0 0 0 0 0 0 0 0
 0.001059588562473568 0.001067173067018423 -4.883935885047208e-05 0.0001836969974000624 -1.716159942466433e-05 0 0 0 0 0 0 0 0
 -3.57763496419139e-05 -1.171102376229527e-05 -0.0001725543960817699 -0.0001550913801797726 2.131065132249255e-05 -1.083718514882648e-05 0 0 0 0 0 0 0
 -0.0003323972861402069 -0.0003004038528611197 -0.0002319058959905362 -0.0002687653789301692 3.419156118888989e-05 -1.745538977226957e-05 0 0 0 0 0 0 0
 -0.001420662050891863 -0.001382386213138354 -0.0002317325601914888 -0.0005134257689611843 0.0001099783637578122 9.682788723797131e-05 -2.131126004223383e-06 0 0 0 0 0 0
 -0.001075210571007901 -0.00132504001819056 0.002116728653913214 0.001519519235768207 4.734585302590411e-06 0.0006786602565773681 2.039389738572872e-05 0 0 0 0 0 0
 -0.001558029732354305 -0.002149924734345277 0.004959791296388794 0.003781318365712494 -7.471878876108562e-05 0.001448083271171796 0.0001015772002377346 -2.275126993467325e-06 0 0 0 0 0
 1.36501166347891e-05 -0.0001983887390164529 0.001745519612068591 0.001462186993999914 -8.606254332310659e-05 0.0004062701199580854 9.681867036037684e-05 -4.864805943638473e-06 0 0 0 0 0
 0.001110648893098753 0.001375468495465881 -0.002242961597013426 -0.001615145014173258 -9.017178991155284e-06 -0.0007289438566786544 -4.583468607322061e-06 1.924791936502857e-05 -4.518413587284442e-06 0 0 0 0
 0.002202767987236065 0.00313270294024659 -0.007786197540414541 -0.005997470574176766 0.0001621208194240165 -0.002189426022012497 -0.0002522335240264795 9.956614468076275e-05 4.556389568488584e-05 -2.446233040576118e-06 0 0 0
 -0.001138795482570121 -0.00111608072064584 -0.000132234171914547 -0.0004154950083723463 0.0002892171095632556 0.0005204851714846193 -0.0006270387635984864 -9.011924719048992e-05 0.0004125339327801791 3.359559864857253e-05 0 0 0
 -0.003930449232998789 -0.004471891709812326 0.004666574330826734 0.002898296187524352 0.0005391156021996579 0.002551657883947733 -0.001226616980129602 -0.0003390452576130798 0.0008690411420189115 0.0001958561641859369 -2.808251394537109e-06 0 0
 -0.003819656596312226 -0.005542198964882061 0.01445327391527762 0.01122313817065113 -0.000445681927154995 0.003775087170222458 0.000905635044631925 -0.0007779939257966384 -0.000543103345456819 0.001042441722766352 4.666621271098848e-05 0 0
 -0.008345094190189251 -0.0135262458653016 0.04333358338492621 0.03450760730881841 -0.002219178107075503 0.009579461200373895 0.004757729447905312 -0.002139350380081506 -0.003065283243322448 0.003226075764450442 0.0007041540751941966 -1.123963103566439e-05 0
 0.001696293683758343 0.001895691146696965 -0.001733601718202138 -0.0009351295290009887 -0.0005854753002936253 -0.001755712759817118 0.00156252554597569 0.0006468087553216373 -0.001154606553202542 -0.0005897307717930289 0.001987677139209665 0.0002351301543974671 0
 0.006061961793755177 0.008670964773981549 -0.02191153194548789 -0.01684720501028281 0.0002136068332303509 -0.006693106432193785 -4.714518032145065e-05 0.001861013721945859 -0.0001634423412668617 -0.002289398832665213 0.002368818273482898 0.000521592079135047 -5.158580978270599e-06
 0.005446432579070834 0.008452216674965707 -0.02517194331810391 -0.01986141613920722 0.00104355655384758 -0.006060516308359132 -0.00215067273650682 0.001476898804335325 0.00135169205812069 -0.002101303474683625 0.0002170633569589242 0.0006247395249405763 3.65508478690213e-05
 0.01065277464541747 0.01688852093567444 -0.0521910174738105 -0.04139776869171463 0.002515214534064558 -0.01184729541196949 -0.005388254074426335 0.002761815936185519 0.003486381458192689 -0.004112736207457779 -0.0006962066847506776 0.001318539262383428 0.0001437260526038209
 0.01358908060103881 0.02172800547485132 -0.06810490132260849 -0.05413434621976432 0.003485600187167037 -0.01504133716728484 -0.007580257604479002 0.003407894330132777 0.004956034596891534 -0.005197159523076866 -0.001662252449657231 0.001730595057071849 0.0003385182350363891
 0.00386494139447624 0.006670645592998792 -0.02343724607620801 -0.01894681404887844 0.001818095811649156 -0.003898153302403173 -0.004303919183441085 0.0005210778979440889 0.002966037928796572 -0.001200486014370616 -0.003077625251329597 0.000588650460938811 0.0008492790644887283
 -0.00496043097203025 -0.00674804523654271 0.01505619391035395 0.01119841497261653 0.0007386429613360779 0.006444633468841166 -0.002464483090269365 -0.002359307128635801 0.00198243823479749 0.002606068919876497 -0.005787490248592153 -0.0004546257558468714 0.001781897156008072
 -0.02094160461424166 -0.03119325415643148 0.0859749837713828 0.0668507574783952 -0.001483738279010716 0.02501604902989829 0.001572360059354239 -0.007435198632959494 -0.0003176570556888691 0.009424834368320978 -0.009808850461302754 -0.002577369302207533 0.003258260632637011
 -0.03592016011081545 -0.05419269875251942 0.1531279132377712 0.1196420840743251 -0.003827311719730275 0.04211315775210256 0.006079430559928767 -0.01197911271216068 -0.003019049605994084 0.01565354227140769 -0.01245661928797759 -0.004905813122665137 0.004239126453347453
 -0.01177181741106414 -0.0188163974460025 0.05879550114589449 0.04682804413429409 -0.003365657083325146 0.01227160854667986 0.007613378773701385 -0.002559896064707523 -0.005124094501781862 0.004187084620761006 0.00346027871459853 -0.002698492023418098 -0.001048095036801477
 0.000120940222805288 -0.002896863068574618 0.02460227269302884 0.02181795904719763 -0.006151515334867241 -0.004620285724723061 0.01639398318361529 0.004037159875935004 -0.01206483228321353 -0.002816925031927653 0.02208669885523484 -0.003157901757408155 -0.007157882436224838
 0.03715010251293327 0.05256142091882232 -0.129928556797914 -0.09857642063470351 -0.003051609937601008 -0.0486893402128552 0.01238105686071478 0.01699504162904475 -0.01061164398115011 -0.0194211429914799 0.03804328705454552 0.001749947218812942 -0.01270214976747752
 0.01887921026922534 0.02825976162702615 -0.07871504947881647 -0.06131814224235832 0.001579520131855361 -0.02243052278922697 -0.002059617333678432 0.006606735378353434 0.0007550975714902819 -0.008474360109096413 0.008080914459037913 0.002685488679487147 -0.002837502091652233
 -0.001178197674272852 0.005662999768825117 -0.05603336026292638 -0.05007433397484462 0.01493553135297887 0.0125356298259014 -0.0399959000457919 -0.01017007496162847 0.02948953915083052 0.00723692369806983 -0.05459458329198696 0.008525999451711286 0.01757832163061224
 -0.008114614517152674 -0.008080590557923095 0.0004763507689435897 -0.003151849353150382 0.007560539594862803 0.01575649263483747 -0.0211036548219905 -0.008212738335982905 0.01586153597015016 0.007356878305559533 -0.03314779431847192 0.003465852664525926 0.01083860798655145
 -0.01808882413181623 -0.0250462761901673 0.05879254452988647 0.04402743797922959 0.002617990038391138 0.02458329053159325 -0.009047868555489558 -0.009081602201554517 0.007387650809143054 0.01006917582213385 -0.02268559170009077 -0.0005992091981568137 0.007728291328676917
 -0.06648672214755669 -0.1007812564308317 0.287725557401096 0.2251678121139875 -0.008044474342662866 0.07726050953254404 0.01390667673994983 -0.02193564626307243 -0.007567779829166454 0.02916657584498594 -0.01980955487128711 -0.0126627328758655 0.008031863477000911
 -0.006758119708218158 -0.01200446763190383 0.04388035495280196 0.03579652999592531 -0.004371346415526833 0.005247992335916996 0.01090492018947442 6.110816660775953e-05 -0.007752026075926732 0.001402348464177861 0.01074889340291207 -0.003388988026796547 -0.003277918602681451
 -0.002840925702376706 -0.006453118301092742 0.03013719474696808 0.02536173522850926 -0.00467903711987594 0.0001204410737032369 0.01217356546112458 0.00185908604956353 -0.008842491926969398 -0.0006619896333783792 0.01472726989815887 -0.003102583342337484 -0.004656148169068564
 -0.001690480762296276 -0.004822736517928639 0.02610095117674405 0.02229712907854597 -0.004769403135286843 -0.001385474996781766 0.01254615526175129 0.002387136116704935 -0.009162752021007969 -0.001268267319761485 0.01589568358964477 -0.00301846884109036 -0.005060921899591286
 0.000559278231640925 -0.001634434364182868 0.01820785263939806 0.01630412149639149 -0.004946118898770724 -0.004330377534622398 0.01327477531625987 0.003419767359124304 -0.009789038427138741 -0.002453877017566497 0.01818058147525559 -0.002853978260902168 -0.005852479417038037


# name: R2y
# type: matrix
# rows: 44
# columns: 13
 -3.865663773458539e-07 0 0 0 0 0 0 0 0 0 0 0 0
 -1.482008593156614e-05 0 0 0 0 0 0 0 0 0 0 0 0
 -3.656498592352619e-05 -3.085546450842802e-06 0 0 0 0 0 0 0 0 0 0 0
 -0.0001635169316571705 -2.154883107285954e-05 -2.087259033056732e-06 0 0 0 0 0 0 0 0 0 0
 -5.716850071557644e-06 2.310629364954409e-06 -5.197062880601955e-06 0 0 0 0 0 0 0 0 0 0
 0.0005609884811139665 8.851616852428856e-05 -5.130889716475906e-05 -2.503938773346093e-05 0 0 0 0 0 0 0 0 0
 0.0009208952910562118 0.0001402127661908059 -9.922695014807914e-05 -4.996749220964603e-05 0 0 0 0 0 0 0 0 0
 0.000115668341240216 3.768156183786564e-05 6.077696052875226e-05 3.368415826088267e-05 -9.349818301807034e-06 -1.153513621149349e-06 0 0 0 0 0 0 0
 -0.001092003958907739 -3.741271477242236e-05 0.0005917486043829356 0.0003099277741174244 -0.0001134670890667877 -3.60456169352652e-05 0 0 0 0 0 0 0
 -0.002570826187607622 -9.654248886104e-05 0.00136218167487101 0.000706623203355683 -0.0002986470526273877 -9.983426133963746e-05 0 0 0 0 0 0 0
 -0.001116804534048832 -8.563273774120361e-05 0.0004327545264795063 0.0002446231101074225 3.233700901716929e-05 2.542455429344059e-05 -9.338768579558732e-06 0 0 0 0 0 0
 -0.0009915025016811185 -0.0001972151933868904 -5.730355236810425e-05 4.237314570998407e-05 0.000469295924354185 0.0002080591823010458 -5.916822358553731e-05 -8.358794371249312e-07 0 0 0 0 0
 -0.0008530456256110597 -0.0001951106584388018 -0.0001418173873091177 -2.700242203168557e-07 0.0004954355898436624 0.0002179756383944298 -5.540156049743672e-05 -2.974349479878402e-06 0 0 0 0 0
 0.001093618885479097 -3.474646147694216e-06 -0.0007265255291120098 -0.000367600687608105 0.000213418541747501 0.0001180114683125844 0.000623982407462087 3.963403323903325e-05 0 0 0 0 0
 0.00380144412275582 0.0002428060422019485 -0.001611391792685879 -0.0009160480755125988 -0.0001620952553302857 -8.929310753913455e-06 0.0016509850477604 0.0001800208277464854 -3.38156899204467e-06 0 0 0 0
 0.00236873164688689 0.0005963894919509549 0.0005908464669825975 4.643896775391454e-05 -0.00175859596443928 -0.0007758586704094128 5.518307625873575e-05 0.000316777858454298 2.831920212198469e-05 0 0 0 0
 0.003196973414571369 0.001299680110951495 0.002570391684853846 0.0007488266393549381 -0.00421607535195001 -0.00190324844667078 -0.001005297065379551 0.000654822460012916 6.955741965075646e-05 0 0 0 0
 0.0008327779688572789 0.001691297519948454 0.005516329270051301 0.002071539189339333 -0.006130635470197543 -0.002836056783193985 -0.003245081201869837 0.0007856745876918536 0.0001373716856889473 -3.261514989805203e-06 0 0 0
 -0.001374537694631917 0.0005080400446464406 0.002711639636113539 0.001165163568530359 -0.00209209111992692 -0.001014027286090791 -0.002149998916257889 0.0001195154765583073 0.0003221170034299892 3.413986527767143e-05 0 0 0
 -0.006987293504127079 -0.0003313797982613664 0.003347168104234299 0.001877852204993147 0.0001750838368117513 -0.00011811203253842 -0.004367294359294505 -0.0006797540130270008 0.00122833038346859 0.0002712936348654438 -3.277581691885079e-06 0 0
 -0.003961419086331075 -0.001277010025259706 -0.00200344736449054 -0.000443023558630351 0.004164591591653277 0.001826508659825699 -1.971328465444344e-05 -0.000906362720423548 0.0005422765532561158 0.0005610870250292166 2.399013914478054e-05 0 0
 -0.004955741691571536 -0.007107775047589193 -0.02224117011881077 -0.00818287488817937 0.02576434527302141 0.01186391292710454 0.01248356542763673 -0.003754901372221786 -0.0001930246276717895 0.0028793182479534 0.0003865816921697629 -1.69974137032014e-05 0
 0.0007377241474690877 -0.006233633391693028 -0.02279116247627488 -0.008893060748624393 0.02321917216398894 0.01088066759811945 0.0152334492827535 -0.002720075235993269 -0.001730301423397584 0.002412663965423723 0.001783970772689436 0.0003839107899783478 0
 0.007655080470619247 -0.01549379812675333 -0.06040327984731775 -0.02407850674124923 0.05834767185545964 0.02757150748853832 0.04302943295763784 -0.006000924493959392 -0.006380488801792872 0.005734112912335831 0.006734539021600483 0.001909884473004553 0
 0.01210545263092833 -0.02093192390813137 -0.08273373728516198 -0.03314007878430481 0.07891809179572817 0.03738489467967199 0.06002158382140621 -0.007740500248961446 -0.009615137636811433 0.007438201768767527 0.01059292351206942 0.003651691861744411 -4.054564091360291e-06
 0.02206694666950071 -0.0356093290933881 -0.1416854038066688 -0.05689478850295693 0.1342718070069751 0.06369883388206077 0.1038754646843429 -0.01278158033010079 -0.01740080586370851 0.01225501403538232 0.01973164830823393 0.00758244975184752 9.704721626757618e-06
 0.0009816487115605274 0.0008483106575161714 0.002418918565128547 0.0008198700673815451 -0.003235772560709504 -0.00142818464868294 -0.0004963632557932751 0.0007733769054444686 -0.0008467869669822048 -0.0008331243127701893 0.001703337866110821 0.001666295995387364 9.435111089223236e-05
 -0.01877114234762445 0.03531465450132742 0.1385375959058415 0.05531793088441539 -0.133237248126953 -0.06298731304968896 -0.09893026346825984 0.01364428845687904 0.0146518066340473 -0.01327220373037719 -0.01507974391073219 -0.003702901248296087 0.0001985635702974609
 -0.07696136363009742 0.1376806395059873 0.5425098621632145 0.2170125176259177 -0.5193312477219649 -0.2457854707141607 -0.3907380806412917 0.05198548265795466 0.06037435449532325 -0.05033069732478879 -0.0644338204329955 -0.01925951604734166 0.0005502040271991859
 -0.1192864623381737 0.201932709745634 0.7997424489266507 0.3205796726124746 -0.7613973093300501 -0.3608355017453277 -0.5819219965182683 0.0740731591161321 0.09438660237988472 -0.07121117270938981 -0.1047749411477668 -0.0371385175048573 0.0004219785949581834
 -0.1711824633849233 0.2649568039042549 1.058628737886551 0.4258840957537586 -0.9983326686761984 -0.4742433701393196 -0.7838477032919258 0.09218390332800652 0.1372971367382831 -0.08740646764897519 -0.1611863207087936 -0.06928700308520774 -0.0003481284809669916
 -0.09846576475829139 0.09166347067568381 0.3910856317730662 0.1613891559501255 -0.3434560615692845 -0.1661677467919134 -0.3255986461926739 0.01845381488009679 0.08358925962157215 -0.01404277190955838 -0.1194111027174358 -0.07918073187913421 -0.002570117225949797
 -0.1345928249854893 0.06603599022489703 0.3220478861365734 0.1390637879472152 -0.2442774842089364 -0.1231092944436227 -0.3229381113937499 -0.008535904718449672 0.118840311011617 0.01619138156309674 -0.1894186871694501 -0.1467289482555287 -0.005841680167063323
 -0.0304754741581279 -0.04348706613180298 -0.1366741443696435 -0.04892452564717331 0.1667461942615365 0.07470639467004681 0.04733408169594622 -0.0352181664803668 0.03140875098602747 0.03855903370900782 -0.06868522133168842 -0.07116820934108237 -0.003669077399635338
 0.06928240738828606 -0.1259563578853999 -0.4956151676992135 -0.1981254814695248 0.4751696304973336 0.2247956707490886 0.3557737809741113 -0.04799037088223201 -0.05408211510870586 0.04657869388156399 0.05689341380197277 0.01580006270108925 -0.0007072427337870835
 0.2246077784565728 -0.2319908240047965 -0.9742575977949741 -0.3996510984142105 0.8703732275720881 0.419215096104125 0.7899121565887413 -0.05513190265021706 -0.188923714124499 0.04570174146931549 0.2623144214382194 0.1657555250510825 0.004797315250995027
 0.1152641874902045 -0.02364966499617793 -0.1577308311858587 -0.07380913392939448 0.08438304576525013 0.04772785302215254 0.2085104588361286 0.02595887511278505 -0.1041019860239416 -0.03342162942055893 0.1763368448566141 0.1467056440882217 0.006350388262774231
 0.1393110903998753 0.06876525110435239 0.158583118325943 0.04475353194157172 -0.2676658735163571 -0.1131311892496321 0.05113778164676042 0.08673118193701157 -0.1331129780850784 -0.09842821817733771 0.2556936814657611 0.2402123136919307 0.01166138247142268
 0.1159889397818636 0.1376966260441344 0.4206078422345332 0.1479588262607399 -0.5283219859162056 -0.2353461362045879 -0.1234121559276133 0.1179558720404565 -0.1168560513469412 -0.129909336263017 0.2480653631478251 0.2519824345991903 0.01303988746238777
 -0.09766147580960904 0.1546727100249825 0.6166101280423106 0.2478070871390585 -0.5827571770246891 -0.2766869745711347 -0.4544827103864861 0.05456432491632057 0.07812193852135607 -0.05195485327603677 -0.09055436535184924 -0.03729489114155626 0.0003375051306804266
 -0.1257520641208956 0.1038501192659709 0.452052294454532 0.1879272572465993 -0.3884617721267887 -0.1890303079309916 -0.38854409252232 0.01605874320854639 0.107736870238945 -0.01007235530671124 -0.1582797548906285 -0.1096210740048917 -0.003549946312287666
 -0.05335723141473458 0.02800766075585059 0.1342036398994964 0.05764441140845378 -0.1038571155049013 -0.05203301776226255 -0.1317667762019106 -0.002327969972197863 0.04694523895914848 0.005311670095457188 -0.07422901583734642 -0.0569314539377892 -0.002180587447856208
 -0.0320955147751425 0.005733407168675875 0.04085432510962406 0.01938150164455887 -0.02027126638830268 -0.01179813558802323 -0.05635356872553388 -0.007727983632891622 0.02909127908369147 0.009829821138129802 -0.04954406346872275 -0.04145698248939134 -0.001778418963373829
 0.00948295331999649 -0.03782513317963687 -0.1416954460346354 -0.05544374411619568 0.1431855052177013 0.06688341177466661 0.09112114811708327 -0.01828801034727601 -0.005823131339498744 0.01866531651078596 -0.001271267725417857 -0.01119579387909297 -0.0009919561492670592




